examples/SRAM_16x8_Appro_4_2/DCIM/results/synth/power_rout.vcd
$date
	Wed Oct  1 12:10:05 2025
$end

$version
	Synopsys VCS version O-2018.09-SP2_Full64
$end

$timescale
	1ps
$end

$comment Csum: 1 80d2cefd7348820b $end


$scope module testbench $end
$var reg 1 ! clk $end
$var reg 1 " rst_n $end
$var reg 1 # sram_ce $end
$var reg 1 $ init_enable $end
$var reg 8 % data_in [7:0] $end
$var wire 16 & data_out [15:0] $end
$var wire 1 ' init_done $end
$var wire 1 ( valid_out $end
$var integer 32 ) i $end
$var reg 4 * addr_counter [3:0] $end

$scope begin unnamed$$_vcs_0 $end
$upscope $end


$scope module dut $end
$var wire 1 + clk $end
$var wire 1 , rst_n $end
$var wire 1 - pe_ce $end
$var wire 1 . init_enable $end
$var wire 8 / data_in [7:0] $end
$var reg 16 0 data_out [15:0] $end
$var wire 1 ' init_done $end
$var wire 1 ( valid_out $end
$var reg 2 1 curr_state [1:0] $end
$var reg 4 2 addr_ptr [3:0] $end
$var reg 4 3 init_count [3:0] $end
$var reg 8 4 data_in_reg [7:0] $end
$var reg 8 5 sram_rdata_reg [7:0] $end
$var reg 1 6 valid_reg_out $end
$var wire 8 7 sram_rdata [7:0] $end
$var wire 16 8 product [15:0] $end
$var wire 1 9 sram_we $end
$var wire 4 : sram_addr [3:0] $end

$scope module sram_inst $end
$var wire 1 + clk $end
$var wire 1 ; ce_in $end
$var wire 1 < we_in $end
$var wire 4 : addr_in [3:0] $end
$var wire 8 = wd_in [7:0] $end
$var reg 8 > rd_out [7:0] $end
$var reg 1 ? notifier $end
$upscope $end


$scope module u_multiplier $end
$var wire 8 @ N1 [7:0] $end
$var wire 8 A N2 [7:0] $end
$var wire 16 8 P_APPROX [15:0] $end
$var wire 1 B pp_0 $end
$var wire 2 C pp_1 [1:0] $end
$var wire 3 D pp_2 [2:0] $end
$var wire 4 E pp_3 [3:0] $end
$var wire 4 F pp_4 [3:0] $end
$var wire 4 G pp_5 [3:0] $end
$var wire 4 H pp_6 [3:0] $end
$var wire 4 I pp_7 [3:0] $end
$var wire 4 J pp_8 [3:0] $end
$var wire 4 K pp_9 [3:0] $end
$var wire 4 L pp_10 [3:0] $end
$var wire 4 M pp_11 [3:0] $end
$var wire 4 N pp_12 [3:0] $end
$var wire 2 O pp_13 [1:0] $end
$var wire 1 P pp_14 $end

$scope module STAGE1 $end
$var wire 8 @ A [7:0] $end
$var wire 8 A B [7:0] $end
$var wire 1 B pp_0 $end
$var wire 2 C pp_1 [1:0] $end
$var wire 3 D pp_2 [2:0] $end
$var wire 4 E pp_3 [3:0] $end
$var wire 4 F pp_4 [3:0] $end
$var wire 4 G pp_5 [3:0] $end
$var wire 4 H pp_6 [3:0] $end
$var wire 4 I pp_7 [3:0] $end
$var wire 4 J pp_8 [3:0] $end
$var wire 4 K pp_9 [3:0] $end
$var wire 4 L pp_10 [3:0] $end
$var wire 4 M pp_11 [3:0] $end
$var wire 4 N pp_12 [3:0] $end
$var wire 2 O pp_13 [1:0] $end
$var wire 1 P pp_14 $end
$var wire 1 Q pp_4_s $end
$var wire 1 R pp_4_c $end
$var wire 1 S pp_5_s $end
$var wire 1 T pp_5_c $end
$var wire 1 U pp_6_pro_s $end
$var wire 1 V pp_6_pro_c $end
$var wire 1 W pp_6_exa_s $end
$var wire 1 X pp_6_exa_c $end
$var wire 1 Y pp_7_pro_s1 $end
$var wire 1 Z pp_7_pro_c1 $end
$var wire 1 [ pp_7_pro_s2 $end
$var wire 1 \ pp_7_pro_c2 $end
$var wire 1 ] pp_8_exa_s1 $end
$var wire 1 ^ pp_8_exa_c1 $end
$var wire 1 _ pp_8_exa_s2 $end
$var wire 1 ` pp_8_exa_c21 $end
$var wire 1 a pp_8_exa_c22 $end
$var wire 1 b pp_9_exa_s1 $end
$var wire 1 c pp_9_exa_c1 $end
$var wire 1 d pp_9_exa_c21 $end
$var wire 1 e pp_9_exa_c22 $end
$var wire 1 f pp_9_exa_s2 $end
$var wire 1 g pp_10_exa_c1 $end
$var wire 1 h pp_10_exa_c2 $end
$var wire 1 i pp_10_exa_s $end
$var wire 1 j pp_11_exa_s $end
$var wire 1 k pp_11_exa_c $end

$scope module Half_adder_pp_4 $end
$var wire 1 l a $end
$var wire 1 m b $end
$var wire 1 Q S $end
$var wire 1 R C $end
$upscope $end


$scope module ACCI1_pp_5 $end
$var wire 1 n a $end
$var wire 1 o b $end
$var wire 1 p c $end
$var wire 1 q d $end
$var wire 1 S S $end
$var wire 1 T C $end
$var wire 1 r part1 $end
$var wire 1 s part2 $end
$var wire 1 t part3 $end
$var wire 1 u part4 $end
$var wire 1 v part5 $end
$var wire 1 w part6 $end
$var wire 1 x part7 $end
$var wire 1 y part8 $end
$upscope $end


$scope module ACCI1_pp_6 $end
$var wire 1 z a $end
$var wire 1 { b $end
$var wire 1 | c $end
$var wire 1 } d $end
$var wire 1 U S $end
$var wire 1 V C $end
$var wire 1 ~ part1 $end
$var wire 1 "! part2 $end
$var wire 1 "" part3 $end
$var wire 1 "# part4 $end
$var wire 1 "$ part5 $end
$var wire 1 "% part6 $end
$var wire 1 "& part7 $end
$var wire 1 "' part8 $end
$upscope $end


$scope module Half_adder_pp_6 $end
$var wire 1 "( a $end
$var wire 1 ") b $end
$var wire 1 W S $end
$var wire 1 X C $end
$upscope $end


$scope module ACCI1_pp_7_1 $end
$var wire 1 "* a $end
$var wire 1 "+ b $end
$var wire 1 ", c $end
$var wire 1 "- d $end
$var wire 1 Y S $end
$var wire 1 Z C $end
$var wire 1 ". part1 $end
$var wire 1 "/ part2 $end
$var wire 1 "0 part3 $end
$var wire 1 "1 part4 $end
$var wire 1 "2 part5 $end
$var wire 1 "3 part6 $end
$var wire 1 "4 part7 $end
$var wire 1 "5 part8 $end
$upscope $end


$scope module ACCI1_pp_7_2 $end
$var wire 1 "6 a $end
$var wire 1 "7 b $end
$var wire 1 "8 c $end
$var wire 1 "9 d $end
$var wire 1 [ S $end
$var wire 1 \ C $end
$var wire 1 ": part1 $end
$var wire 1 "; part2 $end
$var wire 1 "< part3 $end
$var wire 1 "= part4 $end
$var wire 1 "> part5 $end
$var wire 1 "? part6 $end
$var wire 1 "@ part7 $end
$var wire 1 "A part8 $end
$upscope $end


$scope module Full_adder_pp_8 $end
$var wire 1 "B a $end
$var wire 1 "C b $end
$var wire 1 "D CIN $end
$var wire 1 ] S $end
$var wire 1 ^ C $end
$var wire 1 "E S1 $end
$var wire 1 "F T1 $end
$var wire 1 "G T2 $end
$var wire 1 "H T3 $end
$upscope $end


$scope module Exact_42_pp_8 $end
$var wire 1 "I a $end
$var wire 1 "J b $end
$var wire 1 "K c $end
$var wire 1 "L d $end
$var wire 1 "M CIN $end
$var wire 1 _ S $end
$var wire 1 ` C $end
$var wire 1 a COUT $end
$var wire 1 "N part $end
$upscope $end


$scope module Half_adder_pp_9 $end
$var wire 1 "O a $end
$var wire 1 "P b $end
$var wire 1 b S $end
$var wire 1 c C $end
$upscope $end


$scope module Exact_42_pp_9 $end
$var wire 1 "Q a $end
$var wire 1 "R b $end
$var wire 1 "S c $end
$var wire 1 "T d $end
$var wire 1 a CIN $end
$var wire 1 f S $end
$var wire 1 d C $end
$var wire 1 e COUT $end
$var wire 1 "U part $end
$upscope $end


$scope module Exact_42_pp_10 $end
$var wire 1 "V a $end
$var wire 1 "W b $end
$var wire 1 "X c $end
$var wire 1 "Y d $end
$var wire 1 e CIN $end
$var wire 1 i S $end
$var wire 1 g C $end
$var wire 1 h COUT $end
$var wire 1 "Z part $end
$upscope $end


$scope module Full_adder_pp_11 $end
$var wire 1 "[ a $end
$var wire 1 "\ b $end
$var wire 1 h CIN $end
$var wire 1 j S $end
$var wire 1 k C $end
$var wire 1 "] S1 $end
$var wire 1 "^ T1 $end
$var wire 1 "_ T2 $end
$var wire 1 "` T3 $end
$upscope $end

$upscope $end


$scope module STAGE2 $end
$var wire 1 B pp_0 $end
$var wire 2 C pp_1 [1:0] $end
$var wire 3 D pp_2 [2:0] $end
$var wire 4 E pp_3 [3:0] $end
$var wire 4 F pp_4 [3:0] $end
$var wire 4 G pp_5 [3:0] $end
$var wire 4 H pp_6 [3:0] $end
$var wire 4 I pp_7 [3:0] $end
$var wire 4 J pp_8 [3:0] $end
$var wire 4 K pp_9 [3:0] $end
$var wire 4 L pp_10 [3:0] $end
$var wire 4 M pp_11 [3:0] $end
$var wire 4 N pp_12 [3:0] $end
$var wire 2 O pp_13 [1:0] $end
$var wire 1 P pp_14 $end
$var wire 16 8 approx [15:0] $end
$var wire 15 "a A [14:0] $end
$var wire 15 "b B [14:0] $end
$var wire 1 "c pp_2_exa_s $end
$var wire 1 "d pp_2_exa_c $end
$var wire 1 "e pp_3_pro_s $end
$var wire 1 "f pp_3_pro_c $end
$var wire 1 "g pp_4_pro_s $end
$var wire 1 "h pp_4_pro_c $end
$var wire 1 "i pp_5_pro_s $end
$var wire 1 "j pp_5_pro_c $end
$var wire 1 "k pp_6_pro_s $end
$var wire 1 "l pp_6_pro_c $end
$var wire 1 "m pp_7_pro_s $end
$var wire 1 "n pp_7_pro_c $end
$var wire 1 "o pp_8_exa_c1 $end
$var wire 1 "p pp_8_exa_c2 $end
$var wire 1 "q pp_8_exa_s $end
$var wire 1 "r pp_9_exa_c1 $end
$var wire 1 "s pp_9_exa_c2 $end
$var wire 1 "t pp_9_exa_s $end
$var wire 1 "u pp_10_exa_c1 $end
$var wire 1 "v pp_10_exa_c2 $end
$var wire 1 "w pp_10_exa_s $end
$var wire 1 "x pp_11_exa_c1 $end
$var wire 1 "y pp_11_exa_c2 $end
$var wire 1 "z pp_11_exa_s $end
$var wire 1 "{ pp_12_exa_c1 $end
$var wire 1 "| pp_12_exa_c2 $end
$var wire 1 "} pp_12_exa_s $end
$var wire 1 "~ pp_13_exa_s $end
$var wire 1 #! pp_13_exa_c $end

$scope module Final_add $end
$var wire 16 #" A [15:0] $end
$var wire 16 ## B [15:0] $end
$var wire 1 #$ Cin $end
$var wire 16 8 Sum [15:0] $end
$var wire 1 #% Cout $end
$var wire 1 #& c1 $end
$var wire 1 #' c2 $end
$var wire 1 #( c3 $end

$scope module cla1 $end
$var wire 4 #) A [3:0] $end
$var wire 4 #* B [3:0] $end
$var wire 1 #$ Cin $end
$var wire 4 #+ Sum [3:0] $end
$var wire 1 #& Cout $end
$var wire 4 #, C [3:0] $end
$upscope $end


$scope module cla2 $end
$var wire 4 #- A [3:0] $end
$var wire 4 #. B [3:0] $end
$var wire 1 #& Cin $end
$var wire 4 #/ Sum [3:0] $end
$var wire 1 #' Cout $end
$var wire 4 #0 C [3:0] $end
$upscope $end


$scope module cla3 $end
$var wire 4 #1 A [3:0] $end
$var wire 4 #2 B [3:0] $end
$var wire 1 #' Cin $end
$var wire 4 #3 Sum [3:0] $end
$var wire 1 #( Cout $end
$var wire 4 #4 C [3:0] $end
$upscope $end


$scope module cla4 $end
$var wire 4 #5 A [3:0] $end
$var wire 4 #6 B [3:0] $end
$var wire 1 #( Cin $end
$var wire 4 #7 Sum [3:0] $end
$var wire 1 #% Cout $end
$var wire 4 #8 C [3:0] $end
$upscope $end

$upscope $end


$scope module Half_adder_pp_2 $end
$var wire 1 #9 a $end
$var wire 1 #: b $end
$var wire 1 "c S $end
$var wire 1 "d C $end
$upscope $end


$scope module ACCI1_pp_3 $end
$var wire 1 #; a $end
$var wire 1 #< b $end
$var wire 1 #= c $end
$var wire 1 #> d $end
$var wire 1 #? S $end
$var wire 1 #@ C $end
$var wire 1 #A part1 $end
$var wire 1 #B part2 $end
$var wire 1 #C part3 $end
$var wire 1 #D part4 $end
$var wire 1 #E part5 $end
$var wire 1 #F part6 $end
$var wire 1 #G part7 $end
$var wire 1 #H part8 $end
$upscope $end


$scope module ACCI1_pp_4 $end
$var wire 1 #I a $end
$var wire 1 #J b $end
$var wire 1 #K c $end
$var wire 1 #L d $end
$var wire 1 #M S $end
$var wire 1 #N C $end
$var wire 1 #O part1 $end
$var wire 1 #P part2 $end
$var wire 1 #Q part3 $end
$var wire 1 #R part4 $end
$var wire 1 #S part5 $end
$var wire 1 #T part6 $end
$var wire 1 #U part7 $end
$var wire 1 #V part8 $end
$upscope $end


$scope module ACCI1_pp_5 $end
$var wire 1 #W a $end
$var wire 1 #X b $end
$var wire 1 #Y c $end
$var wire 1 #Z d $end
$var wire 1 #[ S $end
$var wire 1 #\ C $end
$var wire 1 #] part1 $end
$var wire 1 #^ part2 $end
$var wire 1 #_ part3 $end
$var wire 1 #` part4 $end
$var wire 1 #a part5 $end
$var wire 1 #b part6 $end
$var wire 1 #c part7 $end
$var wire 1 #d part8 $end
$upscope $end


$scope module ACCI1_pp_6 $end
$var wire 1 #e a $end
$var wire 1 #f b $end
$var wire 1 #g c $end
$var wire 1 #h d $end
$var wire 1 #i S $end
$var wire 1 #j C $end
$var wire 1 #k part1 $end
$var wire 1 #l part2 $end
$var wire 1 #m part3 $end
$var wire 1 #n part4 $end
$var wire 1 #o part5 $end
$var wire 1 #p part6 $end
$var wire 1 #q part7 $end
$var wire 1 #r part8 $end
$upscope $end


$scope module ACCI1_pp_7 $end
$var wire 1 #s a $end
$var wire 1 #t b $end
$var wire 1 #u c $end
$var wire 1 #v d $end
$var wire 1 #w S $end
$var wire 1 #x C $end
$var wire 1 #y part1 $end
$var wire 1 #z part2 $end
$var wire 1 #{ part3 $end
$var wire 1 #| part4 $end
$var wire 1 #} part5 $end
$var wire 1 #~ part6 $end
$var wire 1 $! part7 $end
$var wire 1 $" part8 $end
$upscope $end


$scope module Exact_42_pp_8 $end
$var wire 1 $# a $end
$var wire 1 $$ b $end
$var wire 1 $% c $end
$var wire 1 $& d $end
$var wire 1 $' CIN $end
$var wire 1 $( S $end
$var wire 1 $) C $end
$var wire 1 "p COUT $end
$var wire 1 $* part $end
$upscope $end


$scope module Exact_42_pp_9 $end
$var wire 1 $+ a $end
$var wire 1 $, b $end
$var wire 1 $- c $end
$var wire 1 $. d $end
$var wire 1 "p CIN $end
$var wire 1 $/ S $end
$var wire 1 $0 C $end
$var wire 1 "s COUT $end
$var wire 1 $1 part $end
$upscope $end


$scope module Exact_42_pp_10 $end
$var wire 1 $2 a $end
$var wire 1 $3 b $end
$var wire 1 $4 c $end
$var wire 1 $5 d $end
$var wire 1 "s CIN $end
$var wire 1 $6 S $end
$var wire 1 $7 C $end
$var wire 1 "v COUT $end
$var wire 1 $8 part $end
$upscope $end


$scope module Exact_42_pp_11 $end
$var wire 1 $9 a $end
$var wire 1 $: b $end
$var wire 1 $; c $end
$var wire 1 $< d $end
$var wire 1 "v CIN $end
$var wire 1 $= S $end
$var wire 1 $> C $end
$var wire 1 "y COUT $end
$var wire 1 $? part $end
$upscope $end


$scope module Exact_42_pp_12 $end
$var wire 1 $@ a $end
$var wire 1 $A b $end
$var wire 1 $B c $end
$var wire 1 $C d $end
$var wire 1 "y CIN $end
$var wire 1 $D S $end
$var wire 1 $E C $end
$var wire 1 "| COUT $end
$var wire 1 $F part $end
$upscope $end


$scope module Full_adder_pp_13 $end
$var wire 1 $G a $end
$var wire 1 $H b $end
$var wire 1 "| CIN $end
$var wire 1 "~ S $end
$var wire 1 #! C $end
$var wire 1 $I S1 $end
$var wire 1 $J T1 $end
$var wire 1 $K T2 $end
$var wire 1 $L T3 $end
$upscope $end

$upscope $end

$upscope $end

$upscope $end

$upscope $end

$enddefinitions $end

#0
$dumpvars
0"M
x"V
x"W
x"X
x"Y
x"Z
x"Q
x"R
x"S
x"T
x"U
x"]
x"^
x"_
x"`
x"[
x"\
x"D
x"B
x"C
xl
xm
x"(
x")
x"O
x"P
x"E
x$I
x$J
x$K
x$L
x"F
x"G
x"H
x"I
x"J
x"K
0;
0!
x"L
0.
1,
x'
0$
x?
x"N
1-
xB
xg
xh
xi
xk
xj
xR
xQ
xX
xW
x^
x`
xa
x]
x_
xc
xd
xe
xb
xf
1"
1#
x9
xP
x"u
x"c
x"x
x"d
x"{
x"~
x"e
x#!
x"g
x#9
x"i
x#:
x"k
x$G
x"m
x$H
x"q
x"f
x"t
x"h
x"w
x"j
x"z
x"l
x"}
x"n
x"o
x"r
x(
x6
x<
bxxxxxxxx @
bxxxxxxxx A
b0000 *
bxxxx 2
bxx 1
b00000000 %
bxxxxxxxx 4
bxxxxxxxxxxxxxxxx &
b00000000 /
bxxxxxxxxxxxxxxxx 0
bxxxxxxxxxxxxxxxxxxxxxxxxxxxxxxxx )
bxxxx 3
bxx C
bxx O
bxxx D
bxxxxxxxx >
bxxxx :
bxxxxxxxx 7
bxxxxxxxx 5
bxxxxxxxx =
xr
xs
xt
xu
xv
xw
xx
xy
x~
x"!
x""
x"#
x"$
x"%
x"&
x"'
x".
x"/
x"0
x"1
x"2
x"3
x"4
x"5
x":
x";
x"<
x"=
x">
x"?
x"@
x"A
bxxx0 #,
bxxxx #0
bxxxx #4
b0xxx #8
x#A
x#B
x#C
x#D
x#E
x#F
x#G
x#H
x#O
x#P
x#Q
x#R
x#S
x#T
x#U
x#V
x#]
x#^
x#_
x#`
x#a
x#b
x#c
x#d
x#k
x#l
x#m
x#n
x#o
x#p
x#q
x#r
x#y
x#z
x#{
x#|
x#}
x#~
x$!
x$"
x$*
x$1
x$8
x$?
x$F
bxxxxxxxxxxxxxxxx 8
x#;
x#<
x#=
x#>
x#I
x#J
x#K
x#L
x#W
x#X
x#Y
x#Z
x#e
x#f
x#g
x#h
x#s
x#t
x#u
x#v
x$#
x$$
x$%
x$&
x$+
x$,
x$-
x$.
x$2
x$3
x$4
x$5
x$9
x$:
x$;
x$<
x$@
x$A
x$B
x$C
bxxxx #)
bxxx0 #*
bxxxx #-
bxxxx #.
bxxxx #1
bxxxx #2
b0xxx #5
b0xxx #6
0+
xS
xT
xU
xV
xY
xZ
x[
x\
x#&
x#'
x#(
0#%
x"p
x"s
x"v
x"y
x"|
bxxxxxxxxxxxxxxx "a
b0xxxxxxxxxxxxxxx #"
bxxxxxxxxxxxxxx0 "b
b0xxxxxxxxxxxxxx0 ##
bxxxx E
bxxxx F
bxxxx G
bxxxx H
bxxxx I
bxxxx J
bxxxx K
bxxxx L
bxxxx M
bxxxx N
0#$
xn
xo
xp
xq
xz
x{
x|
x}
x"*
x"+
x",
x"-
x"6
x"7
x"8
x"9
x#?
x#@
x#M
x#N
x#[
x#\
x#i
x#j
x#w
x#x
x$(
x$)
x$/
x$0
x$6
x$7
x$=
x$>
x$D
x$E
bxxxx #+
bxxxx #/
bxxxx #3
bxxxx #7
0$'
$end
x"d
x"f
x"h
x"j
x"l
x"n
x"o
x"r
x"u
x"x
x"{
x#!
xP
x"c
x"e
x"g
x"i
x"k
x"m
x"q
x"t
x"w
x"z
x"}
x"~
#5000
1!
1+
b00 1
0'
09
1<
b0000 2
b0000 :
b0000 3
b00000000 4
b00000000 @
0"8
0"?
0z
0"$
0"[
0"X
0"S
0"K
0"9
0"=
0";
0"\
0"Y
0"T
0"L
0"6
0">
0|
0"%
0o
0v
0l
0"V
0"Q
0"I
0"7
0"<
0":
0{
0""
0~
0n
0t
0r
0"W
0"R
0"J
0"-
0"3
0}
0"#
0"!
0p
0w
0"D
0"P
0m
0",
0"1
0"/
0q
0u
0s
0"C
0"O
0")
0"+
0"2
0"B
0"(
0"*
0"0
0".
0B
b00000000 =
b0000000000000000 0
b0000000000000000 &
06
0(
0P
x"c
x"e
x"g
x"i
x"k
x"m
x"q
x"t
x"w
x"z
x"}
x"~
bxxx0 #)
b00xx #5
1"@
1"&
0"^
0"`
b00 O
0$G
0$H
0$K
0$L
0$J
0$I
b000x N
0$B
0$A
0$@
0"_
0"]
0`
0\
0V
0T
0Z
b00xx G
0#Y
0#b
0#Z
0#`
0#^
0"|
b0xx0 H
0#e
0#o
0#h
0#p
bxx00 J
0$&
0$%
bxxx0 I
0#s
0#}
0$)
1x
0R
0h
0j
0e
0a
b000x M
0$;
0$:
0$9
1"A
0[
0"Z
0i
0"U
0f
0"N
0_
1"'
0U
0"F
0"G
0c
0Q
b00x0 L
0$5
0$3
0$2
b0000 E
0#;
0#E
0#<
0#C
0#A
0#=
0#F
0#>
0#D
0#B
1"4
1y
0S
0"H
0b
0X
b0000 F
0#I
0#S
0#J
0#Q
0#O
0#K
0#T
0#L
0#R
0#P
b000 D
0#9
0#:
0"E
0W
b00 C
1"5
0Y
b00xxxxxxxxxxxx00 #"
b0xxxxxxxxxxxx00 "a
bxxxxxxxxxxxxxxx0 8
0"d
x"f
x"h
x"j
x"l
x"n
0"o
x"r
x"u
x"x
x"{
0#!
bxx0x #2
0P
0"c
x"e
x"g
x"i
x"k
x"m
x"q
x"t
x"w
x"z
x"}
0"~
b0000 #*
bx000 #)
b00xx #6
b000x #5
0k
b000x K
0$-
0$,
0$+
1#c
bxxx0 #+
1#q
1$!
b0000 G
0#W
0#a
0#X
0#_
0#]
0"y
0"v
0#@
0#N
0"s
0#\
b0000 I
0#t
0#{
0#y
0#u
0#~
0#v
0#|
0#z
bx000 J
0$$
b0000 H
0#f
0#m
0#k
0#g
0#n
0#l
bx000 #,
b00xx #8
0$7
0#x
0#j
b0000 #,
0#&
0g
0d
1#G
1#H
0#?
0^
1#U
1#V
0#M
b00xxxx0xxxxx0000 ##
b0xxxx0xxxxx0000 "b
0]
b000xxxxxxxxxx000 #"
b00xxxxxxxxxx000 "a
0"d
0"f
0"h
0"j
0"l
0"n
0"o
x"r
0"u
x"x
x"{
0#!
b0000 #.
b0x00 #2
b0xxxxxxxxxxxx000 8
0P
0"c
0"e
0"g
x"i
x"k
x"m
x"q
x"t
x"w
x"z
x"}
0"~
bxxx0 #-
b0000 #)
b0000 N
0$C
1#d
0#[
bx000 #+
b0xxx #7
1$"
0#w
1#r
0#i
b0000 M
0$<
b0000 L
0$4
b0000 K
0$.
b0000 J
0$#
0$E
0$>
bxxx0 #0
0"p
0$0
b0000 #0
0#'
bxxx0 #4
bxx00 #4
b00xx0x0000000000 ##
b0xx0x0000000000 "b
b000xxxxxxxx00000 #"
b00xxxxxxxx00000 "a
0P
0"c
0"e
0"g
0"i
0"k
0"m
x"q
x"t
x"w
x"z
x"}
0"~
b0000 #-
b0xxxxxxxxxx00000 8
0"d
0"f
0"h
0"j
0"l
0"n
0"o
0"r
0"u
0"x
0"{
0#!
b0000 #2
b0000 #6
0$F
0$D
0$?
0$=
0$8
0$6
0$1
0$/
b0000 #+
bxxx0 #/
0$*
0$(
b000xxxxx00000000 #"
b00xxxxx00000000 "a
b0000 #4
b000x #8
0#(
b0000 #8
b0000000000000000 ##
b000000000000000 "b
0P
0"c
0"e
0"g
0"i
0"k
0"m
0"q
0"t
0"w
0"z
0"}
0"~
b0000 #1
b000xxxxx00000000 8
b0000 #5
b0000 #/
b000x #7
b0000000000000000 #"
b000000000000000 "a
b0000000000000000 8
b0000 #3
b0000 #7
#10000
0!
0+
0"
0,
#15000
1!
1+
b00000000 5
b00000000 A
#20000
0!
0+
#25000
1!
1+
#30000
1"
1,
1$
1.
b00000000000000000000000000000000 )
0!
0+
b00010011 %
b00010011 /
b00000000000000000000000000000001 )
#35000
1!
1+
b01 1
19
0<
b00010011 4
b00010011 @
b00010011 =
bxxxxxxxx 5
bxxxxxxxx A
x"*
x"0
x".
x"B
x"+
x"2
x"V
x"(
x"Q
x"I
x"6
x"<
x":
x|
x"#
x"!
xo
xt
xr
xl
xB
b000x #)
x"5
xY
x"E
bx000 M
x$9
xZ
bxx00 G
x#Y
x#`
x#^
x#Z
x#b
x"y
x$D
x#\
bx000 H
x#h
x#n
x#l
bx000 I
x#v
x#|
x#z
b000x J
x$&
x$)
xh
xj
x"Z
xi
xW
xe
x"U
xf
xa
x"N
x_
bxx00 F
x#K
x#R
x#P
x#L
x#T
x"A
x[
bxx00 E
x#=
x#D
x#B
x#>
x#F
x"'
xU
bxx0 D
x#:
xy
xS
bxx C
xQ
b00000000000000xx #"
b0000000000000xx "a
b000000000000000x 8
0P
x"c
0"e
0"g
0"i
0"k
0"m
0"q
0"t
0"w
0"z
x"}
0"~
0"d
0"f
0"h
x"j
0"l
0"n
x"o
0"r
0"u
0"x
0"{
0#!
b0x00 #.
b00x0 #2
b0xx0 #*
b0xxx #)
b000x #5
x]
x$?
x$=
x#d
x#[
b000x #+
x#r
x#i
x$"
x#w
x$*
x$(
bx0x0 M
x$;
b0x00 L
x$3
x#N
x#@
bxxx0 G
x#X
x#_
x#]
bxxx0 H
x#f
x#m
x#k
x#g
x#p
bxx0x J
x$$
x$#
bxx00 I
x#u
x#~
b0xx0 #,
x#j
x"p
x$/
x#x
xg
b0x00 K
x$,
xd
x#V
x#M
x#H
x#?
b000000x00x000xx0 ##
b00000x00x000xx0 "b
bxx0x F
x#I
x#Q
x#O
b000x000000000xxx #"
b00x000000000xxx "a
0P
x"c
x"e
x"g
x"i
x"k
x"m
x"q
x"t
0"w
x"z
x"}
0"~
bxxxx #-
bx0xx #1
0"d
x"f
x"h
x"j
x"l
x"n
x"o
0"r
0"u
0"x
0"{
0#!
bxxxx #.
b00xx #2
b000x00x00x00xxxx 8
bxxxx #)
x$8
x$6
bxxxx #+
b000x #7
b0x00 #/
b00x0 #3
bx0xx M
x$<
x$1
b0xx0 L
x$4
b000xx0xxxxxxxxxx #"
b00xx0xxxxxxxxxx "a
x"v
x$>
x$0
bxxx0 #,
x#&
bxxxx #0
b00xx #4
x#'
b000000xxxxxx0xx0 ##
b00000xxxxxx0xx0 "b
0P
x"c
x"e
x"g
x"i
x"k
x"m
x"q
x"t
x"w
x"z
x"}
0"~
bxxxx #1
b000xxxxxxxxxxxxx 8
0"d
x"f
x"h
x"j
x"l
x"n
x"o
x"r
0"u
x"x
0"{
0#!
b0xxx #2
b000x #6
bxxxx #/
bxxxx #3
b000xxxxxxxxxxxxx #"
b00xxxxxxxxxxxxx "a
bxxxx #4
b000x #8
x#(
b000x0xxxxxxx0xx0 ##
b00x0xxxxxxx0xx0 "b
b00xxxxxxxxxxxxxx 8
b00xx #7
#40000
0!
0+
b01110000 %
b01110000 /
b00000000000000000000000000000010 )
#45000
1!
1+
b0001 3
b0001 2
b0001 :
b01110000 4
b01110000 @
x"8
x"=
x";
xz
x""
x~
x"[
x"X
x"S
x"K
x"7
x">
x{
x"$
xn
xv
x"W
x"R
x"J
0"+
0"2
0"B
0"(
0"*
0"0
0".
0B
b01110000 =
bxxx0 #)
x\
xV
xT
0Z
b00x0 G
0#Y
0#b
0#Z
0#`
0#^
0#\
b0xxx H
x#e
x#o
0#h
0#p
bxxx0 J
0$&
x$%
bxx0x I
x#s
x#{
x#y
0$)
x"^
x"]
bx0 O
x$G
x$I
bxx00 N
x$A
x$@
x"@
x"&
bxxxx M
x$:
0"E
0W
b000x F
0#K
0#T
0#L
0#R
0#P
b0000 E
0#=
0#F
0#>
0#D
0#B
b000 D
0#:
b00 C
1"5
0Y
b000xxxxxxxxxxx00 #"
b00xxxxxxxxxxx00 "a
b00xxxxxxxxxxxxx0 8
0"d
x"f
x"h
0"j
x"l
x"n
0"o
x"r
0"u
x"x
0"{
0#!
bx0xx #.
b0x0x #2
0P
0"c
x"e
x"g
x"i
x"k
x"m
x"q
x"t
x"w
x"z
x"}
0"~
b0000 #*
bx000 #)
bxxx0 #+
x#q
xk
x"|
x$J
0#N
0#@
b00xx H
0#g
0#n
0#l
b0x0x I
0#v
0#~
bx000 #,
b0000 #,
0#&
x$F
0]
1#H
0#?
b000x0x0xx0xx0000 ##
b00x0x0xx0xx0000 "b
b000xxxxxxxxxx000 #"
b00xxxxxxxxxx000 "a
0"d
0"f
0"h
0"j
x"l
x"n
0"o
x"r
0"u
x"x
0"{
x#!
bx000 #.
b00xxxxxxxxxxx000 8
0P
0"c
0"e
x"g
x"i
x"k
x"m
x"q
x"t
x"w
x"z
x"}
x"~
b0x0x #6
b0000 #)
b00xx #5
bxx0x N
x$C
bx000 #+
1#q
x$E
b0xx0 J
0$#
bxxx0 #0
b0xxx #8
bx000 #0
b0x0x0x0xx0000000 ##
bx0x0x0xx0000000 "b
b00xxxxxxxxxx0000 #"
b0xxxxxxxxxx0000 "a
bxxxxxxxxxxxx0000 8
0"d
0"f
0"h
0"j
x"l
x"n
0"o
x"r
0"u
x"x
x"{
x#!
b0xxx #6
bxxxx #7
b0000 #+
b0xxx0x0xx0000000 ##
bxxx0x0xx0000000 "b
#50000
0!
0+
b11111101 %
b11111101 /
b00000000000000000000000000000011 )
