examples/SRAM_32x16_Log_our/DCIM/results/synth/power_rout.vcd
$date
	Wed Oct  1 12:33:56 2025
$end

$version
	Synopsys VCS version O-2018.09-SP2_Full64
$end

$timescale
	1ps
$end

$comment Csum: 1 d4992e050ce096a9 $end


$scope module testbench $end
$var reg 1 ! clk $end
$var reg 1 " rst_n $end
$var reg 1 # sram_ce $end
$var reg 1 $ init_enable $end
$var reg 16 % data_in [15:0] $end
$var wire 32 & data_out [31:0] $end
$var wire 1 ' init_done $end
$var wire 1 ( valid_out $end
$var integer 32 ) i $end
$var reg 5 * addr_counter [4:0] $end

$scope begin unnamed$$_vcs_0 $end
$upscope $end


$scope module dut $end
$var wire 1 + clk $end
$var wire 1 , rst_n $end
$var wire 1 - pe_ce $end
$var wire 1 . init_enable $end
$var wire 16 / data_in [15:0] $end
$var reg 32 0 data_out [31:0] $end
$var wire 1 ' init_done $end
$var wire 1 ( valid_out $end
$var reg 2 1 curr_state [1:0] $end
$var reg 5 2 addr_ptr [4:0] $end
$var reg 5 3 init_count [4:0] $end
$var reg 16 4 data_in_reg [15:0] $end
$var reg 16 5 sram_rdata_reg [15:0] $end
$var reg 1 6 valid_reg_out $end
$var wire 16 7 sram_rdata [15:0] $end
$var wire 32 8 product [31:0] $end
$var wire 1 9 sram_we $end
$var wire 5 : sram_addr [4:0] $end

$scope module sram_inst $end
$var wire 1 + clk $end
$var wire 1 ; ce_in $end
$var wire 1 < we_in $end
$var wire 5 : addr_in [4:0] $end
$var wire 16 = wd_in [15:0] $end
$var reg 16 > rd_out [15:0] $end
$var reg 1 ? notifier $end
$upscope $end


$scope module u_multiplier $end
$var wire 16 @ x [15:0] $end
$var wire 16 A y [15:0] $end
$var wire 32 8 p [31:0] $end
$var wire 16 B kx [15:0] $end
$var wire 1 C zero_x $end
$var wire 4 D code_x [3:0] $end
$var wire 16 E ky [15:0] $end
$var wire 1 F zero_y $end
$var wire 4 G code_y [3:0] $end
$var wire 15 H sub_x [14:0] $end
$var wire 15 I sub_y [14:0] $end
$var wire 15 J Q1 [14:0] $end
$var wire 15 K Q2 [14:0] $end
$var wire 32 L compensate [31:0] $end
$var wire 1 M flag $end
$var wire 16 N NOD_Q1 [15:0] $end
$var wire 4 O K [3:0] $end
$var wire 5 P code_sum [4:0] $end
$var wire 32 Q dec_out [31:0] $end
$var wire 32 R pp_x [31:0] $end
$var wire 32 S pp_y [31:0] $end
$var wire 32 T tmp_pp [31:0] $end
$var wire 32 U pp_abs [31:0] $end
$var wire 1 V not_zero $end

$scope module LODx $end
$var wire 16 @ data_i [15:0] $end
$var wire 1 C zero_o $end
$var wire 16 B data_o [15:0] $end
$var wire 16 W z [15:0] $end
$var wire 4 X select [3:0] $end
$var wire 4 Y zdet [3:0] $end

$scope module lod4_3 $end
$var wire 4 Z data_i [3:0] $end
$var wire 4 [ data_o [3:0] $end
$var wire 1 \ mux0 $end
$var wire 1 ] mux1 $end
$var wire 1 ^ mux2 $end
$upscope $end


$scope module lod4_2 $end
$var wire 4 _ data_i [3:0] $end
$var wire 4 ` data_o [3:0] $end
$var wire 1 a mux0 $end
$var wire 1 b mux1 $end
$var wire 1 c mux2 $end
$upscope $end


$scope module lod4_1 $end
$var wire 4 d data_i [3:0] $end
$var wire 4 e data_o [3:0] $end
$var wire 1 f mux0 $end
$var wire 1 g mux1 $end
$var wire 1 h mux2 $end
$upscope $end


$scope module lod4_0 $end
$var wire 4 i data_i [3:0] $end
$var wire 4 j data_o [3:0] $end
$var wire 1 k mux0 $end
$var wire 1 l mux1 $end
$var wire 1 m mux2 $end
$upscope $end


$scope module lod4_middle $end
$var wire 4 Y data_i [3:0] $end
$var wire 4 X data_o [3:0] $end
$var wire 1 n mux0 $end
$var wire 1 o mux1 $end
$var wire 1 p mux2 $end
$upscope $end


$scope module Inst_MUX214_3 $end
$var wire 4 [ data_i [3:0] $end
$var wire 1 q select_i $end
$var wire 4 r data_o [3:0] $end
$upscope $end


$scope module Inst_MUX214_2 $end
$var wire 4 ` data_i [3:0] $end
$var wire 1 s select_i $end
$var wire 4 t data_o [3:0] $end
$upscope $end


$scope module Inst_MUX214_1 $end
$var wire 4 e data_i [3:0] $end
$var wire 1 u select_i $end
$var wire 4 v data_o [3:0] $end
$upscope $end


$scope module Inst_MUX214_0 $end
$var wire 4 j data_i [3:0] $end
$var wire 1 w select_i $end
$var wire 4 x data_o [3:0] $end
$upscope $end

$upscope $end


$scope module PEx $end
$var wire 16 B data_i [15:0] $end
$var wire 4 D code_o [3:0] $end
$var wire 8 y tmp0 [7:0] $end
$var wire 8 z tmp1 [7:0] $end
$var wire 8 { tmp2 [7:0] $end
$var wire 8 | tmp3 [7:0] $end

$scope module code0 $end
$var wire 8 y data_i [7:0] $end
$var wire 1 } data_o $end
$var wire 4 ~ tmp1 [3:0] $end
$var wire 2 "! tmp2 [1:0] $end
$upscope $end


$scope module code1 $end
$var wire 8 z data_i [7:0] $end
$var wire 1 "" data_o $end
$var wire 4 "# tmp1 [3:0] $end
$var wire 2 "$ tmp2 [1:0] $end
$upscope $end


$scope module code2 $end
$var wire 8 { data_i [7:0] $end
$var wire 1 "% data_o $end
$var wire 4 "& tmp1 [3:0] $end
$var wire 2 "' tmp2 [1:0] $end
$upscope $end


$scope module code3 $end
$var wire 8 | data_i [7:0] $end
$var wire 1 "( data_o $end
$var wire 4 ") tmp1 [3:0] $end
$var wire 2 "* tmp2 [1:0] $end
$upscope $end

$upscope $end


$scope module LODy $end
$var wire 16 A data_i [15:0] $end
$var wire 1 F zero_o $end
$var wire 16 E data_o [15:0] $end
$var wire 16 "+ z [15:0] $end
$var wire 4 ", select [3:0] $end
$var wire 4 "- zdet [3:0] $end

$scope module lod4_3 $end
$var wire 4 ". data_i [3:0] $end
$var wire 4 "/ data_o [3:0] $end
$var wire 1 "0 mux0 $end
$var wire 1 "1 mux1 $end
$var wire 1 "2 mux2 $end
$upscope $end


$scope module lod4_2 $end
$var wire 4 "3 data_i [3:0] $end
$var wire 4 "4 data_o [3:0] $end
$var wire 1 "5 mux0 $end
$var wire 1 "6 mux1 $end
$var wire 1 "7 mux2 $end
$upscope $end


$scope module lod4_1 $end
$var wire 4 "8 data_i [3:0] $end
$var wire 4 "9 data_o [3:0] $end
$var wire 1 ": mux0 $end
$var wire 1 "; mux1 $end
$var wire 1 "< mux2 $end
$upscope $end


$scope module lod4_0 $end
$var wire 4 "= data_i [3:0] $end
$var wire 4 "> data_o [3:0] $end
$var wire 1 "? mux0 $end
$var wire 1 "@ mux1 $end
$var wire 1 "A mux2 $end
$upscope $end


$scope module lod4_middle $end
$var wire 4 "- data_i [3:0] $end
$var wire 4 ", data_o [3:0] $end
$var wire 1 "B mux0 $end
$var wire 1 "C mux1 $end
$var wire 1 "D mux2 $end
$upscope $end


$scope module Inst_MUX214_3 $end
$var wire 4 "/ data_i [3:0] $end
$var wire 1 "E select_i $end
$var wire 4 "F data_o [3:0] $end
$upscope $end


$scope module Inst_MUX214_2 $end
$var wire 4 "4 data_i [3:0] $end
$var wire 1 "G select_i $end
$var wire 4 "H data_o [3:0] $end
$upscope $end


$scope module Inst_MUX214_1 $end
$var wire 4 "9 data_i [3:0] $end
$var wire 1 "I select_i $end
$var wire 4 "J data_o [3:0] $end
$upscope $end


$scope module Inst_MUX214_0 $end
$var wire 4 "> data_i [3:0] $end
$var wire 1 "K select_i $end
$var wire 4 "L data_o [3:0] $end
$upscope $end

$upscope $end


$scope module PEy $end
$var wire 16 E data_i [15:0] $end
$var wire 4 G code_o [3:0] $end
$var wire 8 "M tmp0 [7:0] $end
$var wire 8 "N tmp1 [7:0] $end
$var wire 8 "O tmp2 [7:0] $end
$var wire 8 "P tmp3 [7:0] $end

$scope module code0 $end
$var wire 8 "M data_i [7:0] $end
$var wire 1 "Q data_o $end
$var wire 4 "R tmp1 [3:0] $end
$var wire 2 "S tmp2 [1:0] $end
$upscope $end


$scope module code1 $end
$var wire 8 "N data_i [7:0] $end
$var wire 1 "T data_o $end
$var wire 4 "U tmp1 [3:0] $end
$var wire 2 "V tmp2 [1:0] $end
$upscope $end


$scope module code2 $end
$var wire 8 "O data_i [7:0] $end
$var wire 1 "W data_o $end
$var wire 4 "X tmp1 [3:0] $end
$var wire 2 "Y tmp2 [1:0] $end
$upscope $end


$scope module code3 $end
$var wire 8 "P data_i [7:0] $end
$var wire 1 "Z data_o $end
$var wire 4 "[ tmp1 [3:0] $end
$var wire 2 "\ tmp2 [1:0] $end
$upscope $end

$upscope $end


$scope module NOD $end
$var wire 15 J data_i [14:0] $end
$var wire 16 N data_o [15:0] $end
$var wire 14 "] t_in [13:0] $end

$scope module nod_basic_unit15 $end
$var wire 1 "^ in0 $end
$var wire 1 "_ in1 $end
$var wire 1 "` in2 $end
$var wire 1 "a out0 $end
$var wire 1 "b tmp1 $end
$var wire 1 "c tmp2 $end
$var wire 1 "d tmp3 $end
$upscope $end


$scope module nod_cels[2].Nod_bits $end
$var wire 4 "e data_i [3:0] $end
$var wire 1 "f t_in $end
$var wire 1 "g data_o $end
$var wire 1 "h t_out $end
$var wire 1 "i tmp1 $end
$var wire 1 "j t_wire $end

$scope module nod_basic_unit $end
$var wire 1 "k in0 $end
$var wire 1 "l in1 $end
$var wire 1 "m in2 $end
$var wire 1 "i out0 $end
$var wire 1 "n tmp1 $end
$var wire 1 "o tmp2 $end
$var wire 1 "p tmp3 $end
$upscope $end

$upscope $end


$scope module nod_cels[3].Nod_bits $end
$var wire 4 "q data_i [3:0] $end
$var wire 1 "r t_in $end
$var wire 1 "s data_o $end
$var wire 1 "f t_out $end
$var wire 1 "t tmp1 $end
$var wire 1 "u t_wire $end

$scope module nod_basic_unit $end
$var wire 1 "v in0 $end
$var wire 1 "w in1 $end
$var wire 1 "x in2 $end
$var wire 1 "t out0 $end
$var wire 1 "y tmp1 $end
$var wire 1 "z tmp2 $end
$var wire 1 "{ tmp3 $end
$upscope $end

$upscope $end


$scope module nod_cels[4].Nod_bits $end
$var wire 4 "| data_i [3:0] $end
$var wire 1 "} t_in $end
$var wire 1 "~ data_o $end
$var wire 1 "r t_out $end
$var wire 1 #! tmp1 $end
$var wire 1 #" t_wire $end

$scope module nod_basic_unit $end
$var wire 1 ## in0 $end
$var wire 1 #$ in1 $end
$var wire 1 #% in2 $end
$var wire 1 #! out0 $end
$var wire 1 #& tmp1 $end
$var wire 1 #' tmp2 $end
$var wire 1 #( tmp3 $end
$upscope $end

$upscope $end


$scope module nod_cels[5].Nod_bits $end
$var wire 4 #) data_i [3:0] $end
$var wire 1 #* t_in $end
$var wire 1 #+ data_o $end
$var wire 1 "} t_out $end
$var wire 1 #, tmp1 $end
$var wire 1 #- t_wire $end

$scope module nod_basic_unit $end
$var wire 1 #. in0 $end
$var wire 1 #/ in1 $end
$var wire 1 #0 in2 $end
$var wire 1 #, out0 $end
$var wire 1 #1 tmp1 $end
$var wire 1 #2 tmp2 $end
$var wire 1 #3 tmp3 $end
$upscope $end

$upscope $end


$scope module nod_cels[6].Nod_bits $end
$var wire 4 #4 data_i [3:0] $end
$var wire 1 #5 t_in $end
$var wire 1 #6 data_o $end
$var wire 1 #* t_out $end
$var wire 1 #7 tmp1 $end
$var wire 1 #8 t_wire $end

$scope module nod_basic_unit $end
$var wire 1 #9 in0 $end
$var wire 1 #: in1 $end
$var wire 1 #; in2 $end
$var wire 1 #7 out0 $end
$var wire 1 #< tmp1 $end
$var wire 1 #= tmp2 $end
$var wire 1 #> tmp3 $end
$upscope $end

$upscope $end


$scope module nod_cels[7].Nod_bits $end
$var wire 4 #? data_i [3:0] $end
$var wire 1 #@ t_in $end
$var wire 1 #A data_o $end
$var wire 1 #5 t_out $end
$var wire 1 #B tmp1 $end
$var wire 1 #C t_wire $end

$scope module nod_basic_unit $end
$var wire 1 #D in0 $end
$var wire 1 #E in1 $end
$var wire 1 #F in2 $end
$var wire 1 #B out0 $end
$var wire 1 #G tmp1 $end
$var wire 1 #H tmp2 $end
$var wire 1 #I tmp3 $end
$upscope $end

$upscope $end


$scope module nod_cels[8].Nod_bits $end
$var wire 4 #J data_i [3:0] $end
$var wire 1 #K t_in $end
$var wire 1 #L data_o $end
$var wire 1 #@ t_out $end
$var wire 1 #M tmp1 $end
$var wire 1 #N t_wire $end

$scope module nod_basic_unit $end
$var wire 1 #O in0 $end
$var wire 1 #P in1 $end
$var wire 1 #Q in2 $end
$var wire 1 #M out0 $end
$var wire 1 #R tmp1 $end
$var wire 1 #S tmp2 $end
$var wire 1 #T tmp3 $end
$upscope $end

$upscope $end


$scope module nod_cels[9].Nod_bits $end
$var wire 4 #U data_i [3:0] $end
$var wire 1 #V t_in $end
$var wire 1 #W data_o $end
$var wire 1 #K t_out $end
$var wire 1 #X tmp1 $end
$var wire 1 #Y t_wire $end

$scope module nod_basic_unit $end
$var wire 1 #Z in0 $end
$var wire 1 #[ in1 $end
$var wire 1 #\ in2 $end
$var wire 1 #X out0 $end
$var wire 1 #] tmp1 $end
$var wire 1 #^ tmp2 $end
$var wire 1 #_ tmp3 $end
$upscope $end

$upscope $end


$scope module nod_cels[10].Nod_bits $end
$var wire 4 #` data_i [3:0] $end
$var wire 1 #a t_in $end
$var wire 1 #b data_o $end
$var wire 1 #V t_out $end
$var wire 1 #c tmp1 $end
$var wire 1 #d t_wire $end

$scope module nod_basic_unit $end
$var wire 1 #e in0 $end
$var wire 1 #f in1 $end
$var wire 1 #g in2 $end
$var wire 1 #c out0 $end
$var wire 1 #h tmp1 $end
$var wire 1 #i tmp2 $end
$var wire 1 #j tmp3 $end
$upscope $end

$upscope $end


$scope module nod_cels[11].Nod_bits $end
$var wire 4 #k data_i [3:0] $end
$var wire 1 #l t_in $end
$var wire 1 #m data_o $end
$var wire 1 #a t_out $end
$var wire 1 #n tmp1 $end
$var wire 1 #o t_wire $end

$scope module nod_basic_unit $end
$var wire 1 #p in0 $end
$var wire 1 #q in1 $end
$var wire 1 #r in2 $end
$var wire 1 #n out0 $end
$var wire 1 #s tmp1 $end
$var wire 1 #t tmp2 $end
$var wire 1 #u tmp3 $end
$upscope $end

$upscope $end


$scope module nod_cels[12].Nod_bits $end
$var wire 4 #v data_i [3:0] $end
$var wire 1 #w t_in $end
$var wire 1 #x data_o $end
$var wire 1 #l t_out $end
$var wire 1 #y tmp1 $end
$var wire 1 #z t_wire $end

$scope module nod_basic_unit $end
$var wire 1 #{ in0 $end
$var wire 1 #| in1 $end
$var wire 1 #} in2 $end
$var wire 1 #y out0 $end
$var wire 1 #~ tmp1 $end
$var wire 1 $! tmp2 $end
$var wire 1 $" tmp3 $end
$upscope $end

$upscope $end


$scope module nod_cels[13].Nod_bits $end
$var wire 4 $# data_i [3:0] $end
$var wire 1 $$ t_in $end
$var wire 1 $% data_o $end
$var wire 1 #w t_out $end
$var wire 1 $& tmp1 $end
$var wire 1 $' t_wire $end

$scope module nod_basic_unit $end
$var wire 1 $( in0 $end
$var wire 1 $) in1 $end
$var wire 1 $* in2 $end
$var wire 1 $& out0 $end
$var wire 1 $+ tmp1 $end
$var wire 1 $, tmp2 $end
$var wire 1 $- tmp3 $end
$upscope $end

$upscope $end

$upscope $end


$scope module PE $end
$var wire 16 N data_i [15:0] $end
$var wire 4 O code_o [3:0] $end
$var wire 8 $. tmp0 [7:0] $end
$var wire 8 $/ tmp1 [7:0] $end
$var wire 8 $0 tmp2 [7:0] $end
$var wire 8 $1 tmp3 [7:0] $end

$scope module code0 $end
$var wire 8 $. data_i [7:0] $end
$var wire 1 $2 data_o $end
$var wire 4 $3 tmp1 [3:0] $end
$var wire 2 $4 tmp2 [1:0] $end
$upscope $end


$scope module code1 $end
$var wire 8 $/ data_i [7:0] $end
$var wire 1 $5 data_o $end
$var wire 4 $6 tmp1 [3:0] $end
$var wire 2 $7 tmp2 [1:0] $end
$upscope $end


$scope module code2 $end
$var wire 8 $0 data_i [7:0] $end
$var wire 1 $8 data_o $end
$var wire 4 $9 tmp1 [3:0] $end
$var wire 2 $: tmp2 [1:0] $end
$upscope $end


$scope module code3 $end
$var wire 8 $1 data_i [7:0] $end
$var wire 1 $; data_o $end
$var wire 4 $< tmp1 [3:0] $end
$var wire 2 $= tmp2 [1:0] $end
$upscope $end

$upscope $end


$scope module dec $end
$var wire 5 P code_i [4:0] $end
$var wire 32 Q data_o [31:0] $end
$upscope $end

$upscope $end

$upscope $end

$upscope $end

$enddefinitions $end

#0
$dumpvars
0;
0!
0.
1,
xM
x'
0$
xV
x?
1-
1"
1#
x9
x"^
x"_
x"`
x"a
x"b
x"c
z"d
x(
x6
x<
bxxxxxxxxxxxxxxx K
b00000 *
bxxxxx 2
bxxxxx P
bxxxxxxxxxxxxxxxxxxxxxxxxxxxxxxxx L
bxx 1
b0000000000000000 %
bxxxxxxxxxxxxxxxx 4
bxxxxxxxxxxxxxxxxxxxxxxxxxxxxxxxx &
bxxxxxxxxxxxxxxxxxxxxxxxxxxxxxxxx Q
b0000000000000000 /
bxxxxxxxxxxxxxxxxxxxxxxxxxxxxxxxx 0
bxxxxxxxxxxxxxxxxxxxxxxxxxxxxxxxx )
bxxxxx 3
bxxxxxxxxxxxxxxxxxxxxxxxxxxxxxxxx U
bxxxxxxxxxxxxxxxxxxxxxxxxxxxxxxxx R
bxxxxxxxxxxxxxxxxxxxxxxxxxxxxxxxx S
bxxxxxxxxxxxxxxxxxxxxxxxxxxxxxxxx 8
bxxxxxxxxxxxxxxxx >
bxxxxx :
bxxxxxxxxxxxxxxxx 7
bxxxxxxxxxxxxxxxx 5
bxxxxxxxxxxxxxxx H
bxxxxxxxxxxxxxxx I
bxxxxxxxxxxxxxxxxxxxxxxxxxxxxxxxx T
bxxxxxxxxxxxxxxxx =
x\
x]
x^
xa
xb
xc
xf
xg
xh
xk
xl
xm
xn
xo
xp
x}
x""
x"%
x"(
bxxxx ~
bxx "!
bxxxx "#
bxx "$
bxxxx "&
bxx "'
bxxxx ")
bxx "*
bxxxxxxxx y
bxxxxxxxx z
bxxxxxxxx {
bxxxxxxxx |
x"0
x"1
x"2
x"5
x"6
x"7
x":
x";
x"<
x"?
x"@
x"A
x"B
x"C
x"D
x"Q
x"T
x"W
x"Z
bxxxx "R
bxx "S
bxxxx "U
bxx "V
bxxxx "X
bxx "Y
bxxxx "[
bxx "\
bxxxxxxxx "M
bxxxxxxxx "N
bxxxxxxxx "O
bxxxxxxxx "P
x"n
x"k
x"l
x"m
x"i
x"o
z"p
x"y
x"v
x"w
x"x
x"t
x"z
z"{
x#&
x##
x#$
x#%
x#!
x#'
z#(
x#1
x#.
x#/
x#0
x#,
x#2
z#3
x#<
x#9
x#:
x#;
x#7
x#=
z#>
x#G
x#D
x#E
x#F
x#B
x#H
z#I
x#R
x#O
x#P
x#Q
x#M
x#S
z#T
x#]
x#Z
x#[
x#\
x#X
x#^
z#_
x#h
x#e
x#f
x#g
x#c
x#i
z#j
x#s
x#p
x#q
x#r
x#n
x#t
z#u
x#~
x#{
x#|
x#}
x#y
x$!
z$"
x$+
x$(
x$)
x$*
x$&
x$,
z$-
x$2
x$5
x$8
x$;
bxxxx $3
bxx $4
bxxxx $6
bxx $7
bxxxx $9
bxx $:
bxxxx $<
bxx $=
bxxxxxxxx $.
bxxxxxxxx $/
bxxxxxxxx $0
bxxxxxxxx $1
bxxxxxxxxxxxxxxxx N
bxxxx "e
bxxxx "q
bxxxx "|
bxxxx #)
bxxxx #4
bxxxx #?
bxxxx #J
bxxxx #U
bxxxx #`
bxxxx #k
bxxxx #v
bxxxx $#
bxxxx Z
bxxxx _
bxxxx d
bxxxx i
bxxxx r
bxxxx v
bxxxx ".
bxxxx "3
bxxxx "8
bxxxx "=
bxxxx "F
bxxxx "J
0+
xC
xF
x"j
x"u
x#"
x#-
x#8
x#C
x#N
x#Y
x#d
x#o
x#z
x$'
bxxxxxxxxxxxxxxx J
b1xxxxxxxxxxxxx "]
bxxxxxxxxxxxxxxxx @
bxxxxxxxxxxxxxxxx B
bxxxxxxxxxxxxxxxx A
bxxxxxxxxxxxxxxxx E
bxxxx D
bxxxx G
bxxxx O
x"h
x"f
x"g
x"r
x"s
x"}
x"~
x#*
x#+
x#5
x#6
x#@
x#A
x#K
x#L
x#V
x#W
x#a
x#b
x#l
x#m
x#w
x#x
1$$
x$%
bxxxx t
bxxxx x
bxxxx "H
bxxxx "L
bxxxx Y
bxxxxxxxxxxxxxxxx W
bxxxx [
bxxxx `
bxxxx e
bxxxx j
bxxxx X
xq
xs
xu
xw
bxxxx "-
bxxxxxxxxxxxxxxxx "+
bxxxx "/
bxxxx "4
bxxxx "9
bxxxx ">
bxxxx ",
x"E
x"G
x"I
x"K
$end
x"a
#5000
1!
1+
b00 1
0'
09
1<
b00000 2
b00000 :
b00000 3
b0000000000000000 4
b0000000000000000 @
1m
1l
1h
1g
1c
1b
1^
1]
b0000 i
0w
b0000 d
b0000 _
0s
b0000 Z
0q
1p
1o
b000000000x00000 H
b0000000000000000 =
b00000000000000000000000000000000 0
b00000000000000000000000000000000 &
06
0(
b00x0 v
bxxxx00x0 {
b00000000 |
b0000 ")
b0000 r
b000000x0 {
b0000 Y
1C
0V
b00x0 j
b00x000x000x000x0 W
b0000 x
b0000000000x00000 B
0u
b00000000000000000000000000000000 8
b00000000 y
b0000 ~
1k
b0000 e
1f
b0000 `
b0000 t
1a
b0000 [
1\
b0000 X
1n
b00000000 z
b0000 "#
b00 "*
b00x0 "&
bx0 "'
b000000000000000 H
b0000 v
b00000000 {
b0000 j
b0000000000000000 W
b0000000000000000 B
b00 "!
b00 "$
b0x00 D
0}
0""
0"(
b0000 "&
b00 "'
b0000 D
0"%
b00000000000000000xxxxxxxxxxxxxxx S
#10000
0!
0+
0"
0,
#15000
1!
1+
b0000000000000000 5
b0000000000000000 A
1"A
1"@
1"<
1";
1"7
1"6
1"2
1"1
b0000 "=
0"K
b0000 "8
b0000 "3
0"G
b0000 ".
0"E
1"D
1"C
b000000000x00000 I
b00x0 "J
bxxxx00x0 "O
b00000000 "P
b0000 "[
b0000 "F
b000000x0 "O
b0000 "-
1F
b00x0 ">
b00x000x000x000x0 "+
b0000 "L
b0000000000x00000 E
0"I
b000000000x00000 J
0"y
0#G
0#]
0#s
0$+
0"n
0#&
0#<
0#R
0#h
0#~
0"b
0"o
0"i
0#2
0#S
0#M
0#t
0#n
0"c
0"z
0"t
0#=
0#7
0#^
0#X
0$!
0#y
0#'
0#!
0#H
0#B
0#i
0#c
0$,
0$&
b0000 "e
0"k
0"l
0"m
b00x0 #4
0#9
0#;
b0000 #`
0#e
0#f
0#g
b0000 "q
0"v
0"w
0"x
b000x #?
0#D
0#E
b0000 #k
0#p
0#q
0#r
bx000 "|
0##
0#$
0#%
b0000 #J
0#O
0#P
0#Q
b0000 #v
0#{
0#|
0#}
b0x00 #)
0#/
0#0
b0000 #U
0#Z
0#[
0#\
b0000 $#
0$(
0$)
0$*
0"^
0"_
0"`
1$'
1#w
0$%
1#z
1#l
0#x
1#o
1#a
0#m
1#d
1#V
0#b
1#Y
1#K
0#W
1#N
1#@
0#L
1#C
1#5
0#A
1#8
1#*
0#6
1#-
1"}
0"~
0"s
0"g
b00000000 "M
b0000 "R
1"?
b0000 "9
1":
b0000 "4
b0000 "H
1"5
b0000 "/
1"0
b0000 ",
1"B
b00000000000000000000000000x00000 S
b000000000x00000 K
b00000000 "N
b0000 "U
b00 "\
b00x0 "X
bx0 "Y
b000000000000000 I
b0000 "J
b00000000 "O
b0000000000x00000 N
0"a
b0000xxxx $0
b00000000 $1
b0000 $<
b000000x0 $0
b0000 ">
b0000000000000000 "+
b0000000000000000 E
b00000x00 $.
b0x00 $3
b1111111111xxxx "]
b00 "S
b00 "V
b0x00 G
0"Q
0"T
0"Z
b00000000000000000000000000000000 S
b000000000000000 K
b000000000000000 J
0#1
0#,
b0000 #4
0#:
b0000 #?
0#F
b0000 "|
b0000 #)
0#.
1#"
1"r
0#+
1"u
1"f
1"j
1"h
0M
b0000 "X
b00 "Y
b00000000 $/
b0000 $6
b00 $=
b00x0 $9
bx0 $:
b0000000000000000 N
0"a
b00000000 $0
b0x $4
b11111111111111 "]
b00000000 $.
b0000 $3
b0000 G
b00000 P
b00000000000000000000000000000001 Q
0"W
b00 $7
b0x0x O
0$5
0$;
b0000 $9
b00 $:
b00 $4
bxxxxxxxxxxxxxxxxxxxxxxxxxxxxxxx1 T
b00000000000000000000000000000000 R
b0000 O
b00000000000000000000000000000000 L
0$2
0$8
b00000000000000000000000000000001 T
b00000000000000000000000000000001 U
#20000
0!
0+
#25000
1!
1+
#30000
1"
1,
1$
1.
b00000000000000000000000000000000 )
0!
0+
b1110001000010011 %
b1110001000010011 /
b00000000000000000000000000000001 )
#35000
1!
1+
b01 1
19
0<
b1110001000010011 4
b1110001000010011 @
0]
0^
b0011 i
1w
b0001 d
b0010 _
1s
0o
b1110 Z
1q
0p
0s
b110001000010010 H
b1110001000010011 =
bxxxxxxxxxxxxxxxx 5
bxxxxxxxxxxxxxxxx A
x"@
x"A
x";
x"<
x"6
x"7
x"1
x"2
bxxxx "=
x"K
bxxxx "8
bxxxx "3
x"G
x"C
bxxxx ".
x"E
x"D
bxxxxxxxxxxxxxxx I
b1111 Y
0C
b1000 r
b10000000 {
b10000000 |
b1000 ")
bxxxx "-
xF
xV
bxx0xxx0x "P
bxx0x "[
bxx0x "F
bxx0x0000 "O
b0001 j
b1000000000010001 W
x"I
bxxxxxxxxxxxxxxx J
x"y
x"t
x#1
x#,
x#G
x#B
x#]
x#X
x#s
x#n
x$+
x$&
x"n
x"i
x#&
x#!
x#<
x#7
x#R
x#M
x#h
x#c
x#~
x#y
x"b
x"o
x#2
x#S
x#t
x"c
x"z
x#=
x#^
x$!
x#'
x#H
x#i
x$,
bxxxx "e
x"k
x"l
x"m
bxxxx #4
x#9
x#:
x#;
bxxxx #`
x#e
x#f
x#g
bxxxx "q
x"v
x"w
x"x
bxxxx #?
x#D
x#E
x#F
bxxxx #k
x#p
x#q
x#r
bxxxx "|
x##
x#$
x#%
bxxxx #J
x#O
x#P
x#Q
bxxxx #v
x#{
x#|
x#}
bxxxx #)
x#.
x#/
x#0
bxxxx #U
x#Z
x#[
x#\
bxxxx $#
x$(
x$)
x$*
x"^
x"_
x"`
b0000000000000000000000000000000x 8
x$'
x#w
x#z
x#l
x$%
x#o
x#a
x#x
x#d
x#V
x#m
x#Y
x#K
x#b
x#N
x#@
x#W
x#C
x#5
x#L
x#8
x#*
x#A
x#-
x"}
x#6
x#"
x"r
x#+
x"u
x"f
x"~
x"j
x"h
x"s
x"g
0k
b0001 e
0a
0\
b1000 [
b1001 X
b0010 x
b1000000000000010 B
0n
0w
b10000000 y
b1000 ~
b00000000000000000110001000010010 R
b110001000010010 K
b00000000000000000110001000010010 L
xM
bxxxx ">
bxxxxxxxxxxxxxxxx "+
x"?
bxxxx "9
x":
bxxxx "4
x"5
bxxxx "/
x"0
bxxxx ",
bxxxx "L
bxxxxxxxxxxxxxxxx E
bxxxxxxxx "M
bxxxx "R
x"B
bxxxx "H
b00000000000000000xxxxxxxxxxxxxxx S
b1000 "&
b10 "'
b10000000 z
b1000 "#
b10 "*
bxxxx00xx "N
bxxxx "U
bxx "\
bxx0x "X
bxx "Y
b110001000010011 H
bxxxxxxxx "P
bxxxx "[
bxxxx "F
bxxxx0000 "O
bxxxx "J
bxxxxxxxx "O
bxxxxxxxxxxxxxxxx N
x"a
bxxxx0000 $0
bxxxxxxxx $1
bxxxx $<
bxxxxxxxx $0
b0010 j
b1000001000010010 W
b0010 `
b1xxxxxxxxxxxxx "]
bxxxxxxxx $.
bxxxx $3
b1000 X
b0000 x
b1000000000000000 B
b10 "!
bxxxxxxxxxxxxxxxxxxxxxxxxxxxxxxxx U
b00000000000000000110001000010011 T
bxxxxxxxxxxxxxxx K
b00000000000000000xxxxxxxxxxxxxxx L
bxx "S
b1101 D
b01101 P
b00000000000000000010000000000000 Q
1}
1"%
1"(
b10 "$
bxx "V
bxxxx G
bxxxxx P
bxxxxxxxxxxxxxxxxxxxxxxxxxxxxxxxx Q
x"Q
x"T
x"W
x"Z
bxxxxxxxxxxxxxxxxxxxxxxxxxxxxxxxx R
bxxxx "X
bxxxxxxxx "N
bxxxxxxxx $/
bxxxx $6
bxxxx $9
bxx $:
bxx $=
bxx $4
bxxxxxxxxxxxxxxxxxxxxxxxxxxxxxxxx 8
bxxxxxxxxxxxxxxxxxxxxxxxxxxxxxxxx T
b0000xxxxxxxxxxxxxxx0000000000000 S
b1111 D
1""
bxx $7
bxxxx O
bxxxxxxxxxxxxxxxxxxxxxxxxxxxxxxxx L
x$2
x$5
x$8
x$;
b00xxxxxxxxxxxxxxx000000000000000 S
#40000
0!
0+
b0010111001110000 %
b0010111001110000 /
b00000000000000000000000000000010 )
#45000
1!
1+
b00001 3
b00001 2
b00001 :
b0010111001110000 4
b0010111001110000 @
0g
0b
0c
1^
1]
b0000 i
b0111 d
b1110 _
b0010 Z
b010111001110000 H
b0010111001110000 =
b0000 r
b00000000 {
b00000000 |
b0000 ")
b1110 Y
1k
0f
b0100 e
b0010100001000000 W
b1000 `
b0010 [
b0010000000000000 B
b01000000 y
b0100 ~
b0000 "&
b00 "'
b00000000 z
b0000 "#
b00 "*
b000111001110000 H
b0010 r
b00100000 {
b00100000 |
b0010 ")
b0000 j
b01 "!
b0011 D
0"%
0"(
b00 "$
b0010 "&
b10 "'
b10 "*
b00000000000000xxxxxxxxxxxxxxx000 S
b1101 D
0""
1"%
1"(
b0000xxxxxxxxxxxxxxx0000000000000 S
#50000
0!
0+
b0011001111111101 %
b0011001111111101 /
b00000000000000000000000000000011 )
