examples/SRAM_16x8_Exact/DCIM/results/synth/power_rout.vcd
$date
	Wed Oct  1 22:39:25 2025
$end

$version
	Synopsys VCS version O-2018.09-SP2_Full64
$end

$timescale
	1ps
$end

$comment Csum: 1 11f7a3632f8b6254 $end


$scope module testbench $end
$var reg 1 ! clk $end
$var reg 1 " rst_n $end
$var reg 1 # sram_ce $end
$var reg 1 $ init_enable $end
$var reg 8 % data_in [7:0] $end
$var wire 16 & data_out [15:0] $end
$var wire 1 ' init_done $end
$var wire 1 ( valid_out $end
$var integer 32 ) i $end
$var reg 4 * addr_counter [3:0] $end

$scope begin unnamed$$_vcs_0 $end
$upscope $end


$scope module dut $end
$var wire 1 + clk $end
$var wire 1 , rst_n $end
$var wire 1 - pe_ce $end
$var wire 1 . init_enable $end
$var wire 8 / data_in [7:0] $end
$var reg 16 0 data_out [15:0] $end
$var wire 1 ' init_done $end
$var wire 1 ( valid_out $end
$var reg 2 1 curr_state [1:0] $end
$var reg 4 2 addr_ptr [3:0] $end
$var reg 4 3 init_count [3:0] $end
$var reg 8 4 data_in_reg [7:0] $end
$var reg 8 5 sram_rdata_reg [7:0] $end
$var reg 1 6 valid_reg_out $end
$var wire 8 7 sram_rdata [7:0] $end
$var wire 16 8 product [15:0] $end
$var wire 1 9 sram_we $end
$var wire 4 : sram_addr [3:0] $end

$scope module sram_inst $end
$var wire 1 + clk $end
$var wire 1 ; ce_in $end
$var wire 1 < we_in $end
$var wire 4 : addr_in [3:0] $end
$var wire 8 = wd_in [7:0] $end
$var reg 8 > rd_out [7:0] $end
$var reg 1 ? notifier $end
$upscope $end


$scope module u_multiplier $end
$var wire 8 @ N1 [7:0] $end
$var wire 8 A N2 [7:0] $end
$var wire 16 8 P_APPROX [15:0] $end
$var wire 1 B pp_0 $end
$var wire 2 C pp_1 [1:0] $end
$var wire 3 D pp_2 [2:0] $end
$var wire 4 E pp_3 [3:0] $end
$var wire 4 F pp_4 [3:0] $end
$var wire 4 G pp_5 [3:0] $end
$var wire 4 H pp_6 [3:0] $end
$var wire 4 I pp_7 [3:0] $end
$var wire 4 J pp_8 [3:0] $end
$var wire 4 K pp_9 [3:0] $end
$var wire 4 L pp_10 [3:0] $end
$var wire 4 M pp_11 [3:0] $end
$var wire 4 N pp_12 [3:0] $end
$var wire 2 O pp_13 [1:0] $end
$var wire 1 P pp_14 $end
$var wire 8 Q n1 [7:0] $end
$var wire 8 R n2 [7:0] $end
$var wire 16 S approx [15:0] $end

$scope module STAGE1 $end
$var wire 8 Q A [7:0] $end
$var wire 8 R B [7:0] $end
$var wire 1 B pp_0 $end
$var wire 2 C pp_1 [1:0] $end
$var wire 3 D pp_2 [2:0] $end
$var wire 4 E pp_3 [3:0] $end
$var wire 4 F pp_4 [3:0] $end
$var wire 4 G pp_5 [3:0] $end
$var wire 4 H pp_6 [3:0] $end
$var wire 4 I pp_7 [3:0] $end
$var wire 4 J pp_8 [3:0] $end
$var wire 4 K pp_9 [3:0] $end
$var wire 4 L pp_10 [3:0] $end
$var wire 4 M pp_11 [3:0] $end
$var wire 4 N pp_12 [3:0] $end
$var wire 2 O pp_13 [1:0] $end
$var wire 1 P pp_14 $end
$var wire 1 T pp_4_s $end
$var wire 1 U pp_4_c $end
$var wire 1 V pp_5_s $end
$var wire 1 W pp_5_c1 $end
$var wire 1 X pp_5_c2 $end
$var wire 1 Y pp_6_s1 $end
$var wire 1 Z pp_6_c1 $end
$var wire 1 [ pp_6_c2 $end
$var wire 1 \ pp_6_s2 $end
$var wire 1 ] pp_6_c3 $end
$var wire 1 ^ pp_7_s1 $end
$var wire 1 _ pp_7_c1 $end
$var wire 1 ` pp_7_c2 $end
$var wire 1 a pp_7_s2 $end
$var wire 1 b pp_7_c3 $end
$var wire 1 c pp_7_c4 $end
$var wire 1 d pp_8_s1 $end
$var wire 1 e pp_8_c1 $end
$var wire 1 f pp_8_c2 $end
$var wire 1 g pp_8_s2 $end
$var wire 1 h pp_8_c3 $end
$var wire 1 i pp_8_c4 $end
$var wire 1 j pp_9_s1 $end
$var wire 1 k pp_9_c1 $end
$var wire 1 l pp_9_c2 $end
$var wire 1 m pp_9_s2 $end
$var wire 1 n pp_9_c3 $end
$var wire 1 o pp_10_s $end
$var wire 1 p pp_10_c1 $end
$var wire 1 q pp_10_c2 $end
$var wire 1 r pp_11_s $end
$var wire 1 s pp_11_c $end

$scope module Half_adder_pp_4 $end
$var wire 1 t a $end
$var wire 1 u b $end
$var wire 1 T S $end
$var wire 1 U C $end
$upscope $end


$scope module E_4_2_pp_5 $end
$var wire 1 v a $end
$var wire 1 w b $end
$var wire 1 x c $end
$var wire 1 y d $end
$var wire 1 z CIN $end
$var wire 1 V S $end
$var wire 1 W C $end
$var wire 1 X COUT $end
$var wire 1 { part $end
$upscope $end


$scope module E_4_2_pp_6 $end
$var wire 1 | a $end
$var wire 1 } b $end
$var wire 1 ~ c $end
$var wire 1 "! d $end
$var wire 1 X CIN $end
$var wire 1 Y S $end
$var wire 1 Z C $end
$var wire 1 [ COUT $end
$var wire 1 "" part $end
$upscope $end


$scope module Half_adder_pp_6 $end
$var wire 1 "# a $end
$var wire 1 "$ b $end
$var wire 1 \ S $end
$var wire 1 ] C $end
$upscope $end


$scope module E_4_2_pp_7_1 $end
$var wire 1 "% a $end
$var wire 1 "& b $end
$var wire 1 "' c $end
$var wire 1 "( d $end
$var wire 1 [ CIN $end
$var wire 1 ^ S $end
$var wire 1 _ C $end
$var wire 1 ` COUT $end
$var wire 1 ") part $end
$upscope $end


$scope module E_4_2_pp_7_2 $end
$var wire 1 "* a $end
$var wire 1 "+ b $end
$var wire 1 ", c $end
$var wire 1 "- d $end
$var wire 1 ". CIN $end
$var wire 1 a S $end
$var wire 1 b C $end
$var wire 1 c COUT $end
$var wire 1 "/ part $end
$upscope $end


$scope module E_4_2_pp_8_1 $end
$var wire 1 "0 a $end
$var wire 1 "1 b $end
$var wire 1 "2 c $end
$var wire 1 "3 d $end
$var wire 1 ` CIN $end
$var wire 1 d S $end
$var wire 1 e C $end
$var wire 1 f COUT $end
$var wire 1 "4 part $end
$upscope $end


$scope module E_4_2_pp_8_2 $end
$var wire 1 "5 a $end
$var wire 1 "6 b $end
$var wire 1 "7 c $end
$var wire 1 c d $end
$var wire 1 "8 CIN $end
$var wire 1 g S $end
$var wire 1 h C $end
$var wire 1 i COUT $end
$var wire 1 "9 part $end
$upscope $end


$scope module E_4_2_pp_9_1 $end
$var wire 1 ": a $end
$var wire 1 "; b $end
$var wire 1 "< c $end
$var wire 1 "= d $end
$var wire 1 f CIN $end
$var wire 1 j S $end
$var wire 1 k C $end
$var wire 1 l COUT $end
$var wire 1 "> part $end
$upscope $end


$scope module Full_adder_pp_9 $end
$var wire 1 "? a $end
$var wire 1 "@ b $end
$var wire 1 i CIN $end
$var wire 1 m S $end
$var wire 1 n C $end
$var wire 1 "A S1 $end
$var wire 1 "B T1 $end
$var wire 1 "C T2 $end
$var wire 1 "D T3 $end
$upscope $end


$scope module E_4_2_pp_10 $end
$var wire 1 "E a $end
$var wire 1 "F b $end
$var wire 1 "G c $end
$var wire 1 "H d $end
$var wire 1 l CIN $end
$var wire 1 o S $end
$var wire 1 p C $end
$var wire 1 q COUT $end
$var wire 1 "I part $end
$upscope $end


$scope module Full_adder_pp_11 $end
$var wire 1 "J a $end
$var wire 1 "K b $end
$var wire 1 q CIN $end
$var wire 1 r S $end
$var wire 1 s C $end
$var wire 1 "L S1 $end
$var wire 1 "M T1 $end
$var wire 1 "N T2 $end
$var wire 1 "O T3 $end
$upscope $end

$upscope $end


$scope module STAGE2 $end
$var wire 1 B pp_0 $end
$var wire 2 C pp_1 [1:0] $end
$var wire 3 D pp_2 [2:0] $end
$var wire 4 E pp_3 [3:0] $end
$var wire 4 F pp_4 [3:0] $end
$var wire 4 G pp_5 [3:0] $end
$var wire 4 H pp_6 [3:0] $end
$var wire 4 I pp_7 [3:0] $end
$var wire 4 J pp_8 [3:0] $end
$var wire 4 K pp_9 [3:0] $end
$var wire 4 L pp_10 [3:0] $end
$var wire 4 M pp_11 [3:0] $end
$var wire 4 N pp_12 [3:0] $end
$var wire 2 O pp_13 [1:0] $end
$var wire 1 P pp_14 $end
$var wire 16 S approx [15:0] $end
$var wire 15 "P A [14:0] $end
$var wire 15 "Q B [14:0] $end
$var wire 1 "R pp_2_s $end
$var wire 1 "S pp_2_c $end
$var wire 1 "T pp_3_s $end
$var wire 1 "U pp_3_c1 $end
$var wire 1 "V pp_3_c2 $end
$var wire 1 "W pp_4_s $end
$var wire 1 "X pp_4_c1 $end
$var wire 1 "Y pp_4_c2 $end
$var wire 1 "Z pp_5_s $end
$var wire 1 "[ pp_5_c1 $end
$var wire 1 "\ pp_5_c2 $end
$var wire 1 "] pp_6_s $end
$var wire 1 "^ pp_6_c1 $end
$var wire 1 "_ pp_6_c2 $end
$var wire 1 "` pp_7_s $end
$var wire 1 "a pp_7_c1 $end
$var wire 1 "b pp_7_c2 $end
$var wire 1 "c pp_8_s $end
$var wire 1 "d pp_8_c1 $end
$var wire 1 "e pp_8_c2 $end
$var wire 1 "f pp_9_s $end
$var wire 1 "g pp_9_c1 $end
$var wire 1 "h pp_9_c2 $end
$var wire 1 "i pp_10_s $end
$var wire 1 "j pp_10_c1 $end
$var wire 1 "k pp_10_c2 $end
$var wire 1 "l pp_11_s $end
$var wire 1 "m pp_11_c1 $end
$var wire 1 "n pp_11_c2 $end
$var wire 1 "o pp_12_s $end
$var wire 1 "p pp_12_c1 $end
$var wire 1 "q pp_12_c2 $end
$var wire 1 "r pp_13_s $end
$var wire 1 "s pp_13_c $end

$scope module Final_add $end
$var wire 16 "t A [15:0] $end
$var wire 16 "u B [15:0] $end
$var wire 1 "v Cin $end
$var wire 16 S Sum [15:0] $end
$var wire 1 "w Cout $end
$var wire 1 "x c1 $end
$var wire 1 "y c2 $end
$var wire 1 "z c3 $end

$scope module cla1 $end
$var wire 4 "{ A [3:0] $end
$var wire 4 "| B [3:0] $end
$var wire 1 "v Cin $end
$var wire 4 "} Sum [3:0] $end
$var wire 1 "x Cout $end
$var wire 4 "~ C [3:0] $end
$upscope $end


$scope module cla2 $end
$var wire 4 #! A [3:0] $end
$var wire 4 #" B [3:0] $end
$var wire 1 "x Cin $end
$var wire 4 ## Sum [3:0] $end
$var wire 1 "y Cout $end
$var wire 4 #$ C [3:0] $end
$upscope $end


$scope module cla3 $end
$var wire 4 #% A [3:0] $end
$var wire 4 #& B [3:0] $end
$var wire 1 "y Cin $end
$var wire 4 #' Sum [3:0] $end
$var wire 1 "z Cout $end
$var wire 4 #( C [3:0] $end
$upscope $end


$scope module cla4 $end
$var wire 4 #) A [3:0] $end
$var wire 4 #* B [3:0] $end
$var wire 1 "z Cin $end
$var wire 4 #+ Sum [3:0] $end
$var wire 1 "w Cout $end
$var wire 4 #, C [3:0] $end
$upscope $end

$upscope $end


$scope module Half_adder_pp_2 $end
$var wire 1 #- a $end
$var wire 1 #. b $end
$var wire 1 "R S $end
$var wire 1 "S C $end
$upscope $end


$scope module E_4_2_pp_3 $end
$var wire 1 #/ a $end
$var wire 1 #0 b $end
$var wire 1 #1 c $end
$var wire 1 #2 d $end
$var wire 1 #3 CIN $end
$var wire 1 #4 S $end
$var wire 1 #5 C $end
$var wire 1 "V COUT $end
$var wire 1 #6 part $end
$upscope $end


$scope module E_4_2_pp_4 $end
$var wire 1 #7 a $end
$var wire 1 #8 b $end
$var wire 1 #9 c $end
$var wire 1 #: d $end
$var wire 1 "V CIN $end
$var wire 1 #; S $end
$var wire 1 #< C $end
$var wire 1 "Y COUT $end
$var wire 1 #= part $end
$upscope $end


$scope module E_4_2_pp_5 $end
$var wire 1 #> a $end
$var wire 1 #? b $end
$var wire 1 #@ c $end
$var wire 1 #A d $end
$var wire 1 "Y CIN $end
$var wire 1 #B S $end
$var wire 1 #C C $end
$var wire 1 "\ COUT $end
$var wire 1 #D part $end
$upscope $end


$scope module E_4_2_pp_6 $end
$var wire 1 #E a $end
$var wire 1 #F b $end
$var wire 1 #G c $end
$var wire 1 #H d $end
$var wire 1 "\ CIN $end
$var wire 1 #I S $end
$var wire 1 #J C $end
$var wire 1 "_ COUT $end
$var wire 1 #K part $end
$upscope $end


$scope module E_4_2_pp_7 $end
$var wire 1 #L a $end
$var wire 1 #M b $end
$var wire 1 #N c $end
$var wire 1 #O d $end
$var wire 1 "_ CIN $end
$var wire 1 #P S $end
$var wire 1 #Q C $end
$var wire 1 "b COUT $end
$var wire 1 #R part $end
$upscope $end


$scope module E_4_2_pp_8 $end
$var wire 1 #S a $end
$var wire 1 #T b $end
$var wire 1 #U c $end
$var wire 1 #V d $end
$var wire 1 "b CIN $end
$var wire 1 #W S $end
$var wire 1 #X C $end
$var wire 1 "e COUT $end
$var wire 1 #Y part $end
$upscope $end


$scope module E_4_2_pp_9 $end
$var wire 1 #Z a $end
$var wire 1 #[ b $end
$var wire 1 #\ c $end
$var wire 1 #] d $end
$var wire 1 "e CIN $end
$var wire 1 #^ S $end
$var wire 1 #_ C $end
$var wire 1 "h COUT $end
$var wire 1 #` part $end
$upscope $end


$scope module E_4_2_pp_10 $end
$var wire 1 #a a $end
$var wire 1 #b b $end
$var wire 1 #c c $end
$var wire 1 #d d $end
$var wire 1 "h CIN $end
$var wire 1 #e S $end
$var wire 1 #f C $end
$var wire 1 "k COUT $end
$var wire 1 #g part $end
$upscope $end


$scope module E_4_2_pp_11 $end
$var wire 1 #h a $end
$var wire 1 #i b $end
$var wire 1 #j c $end
$var wire 1 #k d $end
$var wire 1 "k CIN $end
$var wire 1 #l S $end
$var wire 1 #m C $end
$var wire 1 "n COUT $end
$var wire 1 #n part $end
$upscope $end


$scope module E_4_2_pp_12 $end
$var wire 1 #o a $end
$var wire 1 #p b $end
$var wire 1 #q c $end
$var wire 1 #r d $end
$var wire 1 "n CIN $end
$var wire 1 #s S $end
$var wire 1 #t C $end
$var wire 1 "q COUT $end
$var wire 1 #u part $end
$upscope $end


$scope module Full_adder_pp_13 $end
$var wire 1 #v a $end
$var wire 1 #w b $end
$var wire 1 "q CIN $end
$var wire 1 "r S $end
$var wire 1 "s C $end
$var wire 1 #x S1 $end
$var wire 1 #y T1 $end
$var wire 1 #z T2 $end
$var wire 1 #{ T3 $end
$upscope $end

$upscope $end

$upscope $end

$upscope $end

$upscope $end

$enddefinitions $end

#0
$dumpvars
0z
x"F
x"G
x"I
x"!
x""
x")
0".
x"*
0"-
x"/
x"3
x"4
0"8
0"7
x"9
x"<
x">
x"L
0"M
x"N
0"O
0"J
x"K
0"@
x"#
x"A
0#x
0#y
0#z
0#{
x"B
0"C
0"D
0;
0!
xy
0.
1,
x'
0$
x?
x{
1-
xB
xp
xq
xo
xs
xr
xU
xT
xW
xX
xV
xZ
x[
x]
xY
x\
x_
x`
0b
xc
x^
xa
xe
xf
xh
xi
xd
xg
xk
xl
xn
xj
xm
1"
1#
x9
0P
x"j
xt
x"5
x"R
x"m
0"0
x"+
x"S
x"p
x"&
x"$
x"r
x"T
x}
x"H
0"s
x"W
xw
x"?
x#-
x"Z
xu
x"6
x#.
x"]
0":
x",
0#v
x"`
x"1
0#w
x"c
x"'
x"U
x"f
x~
x"X
x"i
xx
x"[
x"l
0"E
x"^
x"o
x";
x"a
0"%
x"2
x"d
x|
x"(
x"g
xv
x"=
x(
x6
x<
bxxxxxxxx @
bxxxxxxxx A
b0000 *
bxxxx 2
bxx 1
b00000000 %
bxxxxxxxx 4
bxxxxxxxxxxxxxxxx &
b00000000 /
bxxxxxxxxxxxxxxxx 0
bxxxxxxxxxxxxxxxxxxxxxxxxxxxxxxxx )
bxxxx 3
b0xxxxxxx Q
b0xxxxxxx R
bxx C
b00 O
bxxx D
bxxxxxxxxxxxxxxxx 8
bxxxxxxxx >
bxxxx :
bxxxxxxxx 7
bxxxxxxxx 5
bxxxxxxxx =
bxxx0 "~
bxxxx #$
bxxxx #(
b00xx #,
x#6
x#=
x#D
x#K
x#R
x#Y
x#`
x#g
x#n
x#u
x#/
x#0
x#1
x#2
x#7
x#8
x#9
x#:
x#>
x#?
x#@
x#A
x#E
x#F
x#G
x#H
x#L
x#M
x#N
x#O
x#S
x#T
x#U
0#V
x#Z
x#[
x#\
x#]
x#a
x#b
0#c
x#d
x#h
0#i
x#j
x#k
x#o
0#p
x#q
0#r
bxxxx "{
bxxx0 "|
bxxxx #!
bxxxx #"
bxxxx #%
bxxxx #&
b00xx #)
b00xx #*
0+
x"x
x"y
x"z
0"w
x"V
x"Y
x"\
x"_
x"b
x"e
x"h
x"k
x"n
x"q
b0xxxxxxxxxxxxxx "P
b00xxxxxxxxxxxxxx "t
b0xxxxxxxxxxxxx0 "Q
b00xxxxxxxxxxxxx0 "u
bxxxx E
bxxxx F
bxxxx G
bxxxx H
bxxxx I
b0xxx J
bxxxx K
bx0xx L
bxx0x M
b0x0x N
b0xxxxxxxxxxxxxxx S
0"v
x#4
x#5
x#;
x#<
x#B
x#C
x#I
x#J
x#P
x#Q
x#W
x#X
x#^
x#_
x#e
x#f
x#l
x#m
x#s
x#t
bxxxx "}
bxxxx ##
bxxxx #'
b0xxx #+
0#3
$end
x"S
x"U
x"X
x"[
x"^
x"a
x"d
x"g
x"j
x"m
x"p
0"s
0P
x"R
x"T
x"W
x"Z
x"]
x"`
x"c
x"f
x"i
x"l
x"o
x"r
#5000
1!
1+
b00 1
0'
09
1<
b0000 2
b0000 :
b0000 3
b00000000 4
b00000000 @
b00000000 Q
0"H
0"?
0"6
0",
0"=
0"5
0"+
0"$
0"1
0"'
0~
0x
0"&
0}
0w
0u
0";
0"2
0"(
0|
0v
0t
0"K
0"F
0"G
0"<
0"3
0"*
0"!
0"#
0y
0B
b00000000 =
b0000000000000000 0
b0000000000000000 &
06
0(
bxxx0 "{
0"B
0"A
0]
0i
0m
0f
0`
0U
0l
0")
0T
0[
0^
0X
0"N
0"L
0q
0r
b000x N
0#q
0"I
0o
0">
0j
b000x M
0#j
0#k
0"4
0d
0c
0"/
0a
0""
0Y
b0000 E
0#/
0#0
0#1
0#2
0\
0W
0{
0V
b0000 F
0#7
0#8
0#9
0#:
b000 D
0#-
0#.
b0000 G
0#>
0#?
0#@
0#A
b00 C
b0000 H
0#E
0#F
0#G
0#H
b00xxxxxxxxxxxx00 "t
b0xxxxxxxxxxxx00 "P
0"V
0#5
0"Y
0"\
0"_
0#<
0#C
0#J
bxx00 "~
bx000 "~
0"S
0"U
0"X
0"[
0"^
x"a
x"d
x"g
x"j
x"m
x"p
0"s
b0000 #"
0P
0"R
x"T
x"W
x"Z
x"]
x"`
x"c
x"f
x"i
x"l
x"o
x"r
b0000 "|
bx000 "{
0n
b0x00 I
0#L
0#M
0#O
bxx00 K
0#Z
0#[
0k
0e
0p
0_
0Z
0s
b0000 L
0#a
0#b
0#d
b00x0 J
0#S
0#U
0h
0"9
0g
0#6
0#4
0#=
0#;
b00xxxxxx00000000 "u
b0xxxxxx00000000 "Q
0#D
0#B
0#K
0#I
bxx00 "}
b0xxxxxxxxxxxxx00 S
bxxxxxxxxxxxxxx00 8
0"b
0"h
0"k
0"e
0#Q
b0000 "~
0"x
0#X
0#f
0#m
bxxx0 #$
b0000 #$
0"y
b00xxxxxxxxxxx000 "t
b0xxxxxxxxxxx000 "P
0P
0"R
0"T
0"W
0"Z
0"]
x"`
x"c
x"f
x"i
x"l
x"o
x"r
bx000 #!
0"S
0"U
0"X
0"[
0"^
0"a
0"d
x"g
0"j
0"m
x"p
0"s
b0x00 #&
b0000 "{
b00x0 #*
b0000 K
0#\
0#]
b0000 M
0#h
b0000 I
0#N
b0000 N
0#o
0#g
0#e
b0000 J
0#T
bx000 "}
b0xxxxxxxxxxxx000 S
b00xxxxxxx0000000 "t
b0xxxxxxx0000000 "P
bxxxxxxxxxxxxx000 8
0"n
0"q
0#_
bxxx0 #(
0#t
bxx00 #(
b00x00x0000000000 "u
b0x00x0000000000 "Q
0P
0"R
0"T
0"W
0"Z
0"]
x"`
x"c
x"f
0"i
x"l
x"o
0"r
bx0xx #%
0"S
0"U
0"X
0"[
0"^
0"a
0"d
0"g
0"j
0"m
0"p
0"s
b0000 #&
b000x #)
b0000 #*
0#`
0#^
0#n
0#l
0#R
0#P
0#u
0#s
0#Y
0#W
b0000 "}
b0xxxxxxxx0000000 S
bx000 ##
b000xx0xxx0000000 "t
b00xx0xxx0000000 "P
bxxxxxxxxx0000000 8
b0000 #(
b000x #,
0"z
b0000 #,
b0000000000000000 "u
b000000000000000 "Q
0P
0"R
0"T
0"W
0"Z
0"]
0"`
0"c
0"f
0"i
0"l
0"o
0"r
b0000 #!
b0000 #%
b0000 #)
bx0xx #'
b000xx0xxx0000000 S
b000x #+
b0000000000000000 "t
b000000000000000 "P
bx00xx0xxx0000000 8
b0000 ##
b0000000000000000 S
b0000 #'
b0000 #+
bx000000000000000 8
#10000
0!
0+
0"
0,
#15000
1!
1+
b00000000 5
b00000000 A
b00000000 R
b0000000000000000 8
#20000
0!
0+
#25000
1!
1+
#30000
1"
1,
1$
1.
b00000000000000000000000000000000 )
0!
0+
b00010011 %
b00010011 /
b00000000000000000000000000000001 )
#35000
1!
1+
b01 1
19
0<
b00010011 4
b00010011 @
b00010011 Q
b00010011 =
bxxxxxxxx 5
bxxxxxxxx A
b0xxxxxxx R
x"H
x",
x"=
x"$
x"3
x"(
x~
xw
xt
xB
b000x "{
bx000000000000000 8
xp
x"I
xo
x"/
xa
b0x00 H
x#G
x\
xk
x">
xj
b0xx0 G
x#?
x#@
xe
x"4
xd
bxx00 F
x#9
x#:
x_
x")
x^
bxx00 E
x#1
x#2
x""
xY
bxx0 D
x#.
x{
xV
bxx C
xT
b00000000000000xx "t
b0000000000000xx "P
0P
x"R
0"T
0"W
0"Z
0"]
0"`
0"c
0"f
0"i
0"l
0"o
0"r
b0xx0 "|
b0xxx "{
b000x "}
b000000000000000x S
b000x M
x#h
bx0x0 L
x#b
x#d
b00xx I
x#L
x#M
x#K
x#I
b0xxx H
x#E
x#F
b0x0x K
x#Z
x#\
x#D
x#B
x"\
x#5
bx00000000000000x 8
x"n
x#s
x"b
x#W
x"_
x#P
x"h
x#e
x#<
x#f
x#J
b0xx0 "~
b0x0x J
x#S
x#U
x#=
x#;
x#6
x#4
b0000000000000xx0 "u
b000000000000xx0 "Q
b0xxx G
x#>
bxx0x F
x#7
b0000000000000xxx "t
b000000000000xxx "P
0P
x"R
x"T
x"W
x"Z
x"]
x"`
x"c
0"f
x"i
0"l
x"o
0"r
bxxxx #!
b0x0x #%
0"S
x"U
x"X
0"[
x"^
0"a
0"d
0"g
x"j
0"m
0"p
0"s
bx0xx #"
bx000 #&
bxxxx "{
b000x #)
x#n
x#l
x#g
x#R
x#`
x#^
bxxxx "}
b000000000000xxxx S
x"e
x"Y
bx00000000000xxxx 8
x#Q
x#_
x#C
bxxx0 "~
x"x
bxxxx #$
x"y
b000x #(
x#Y
b000x0x0xxxxxxxxx "t
b00x0x0xxxxxxxxx "P
b0000x000x0xx0xx0 "u
b000x000x0xx0xx0 "Q
0P
x"R
x"T
x"W
x"Z
x"]
x"`
x"c
x"f
x"i
x"l
x"o
0"r
bxxxx #%
0"S
x"U
x"X
x"[
x"^
x"a
0"d
x"g
x"j
0"m
0"p
0"s
bxxxx #"
bxx0x #&
bxxxx ##
b000xxxxxxxxxxxxx S
bxxxx #'
b000x #+
bx00xxxxxxxxxxxxx 8
x#X
bxxxx #(
x"z
b000x #,
b000xxxxxxxxxxxxx "t
b00xxxxxxxxxxxxx "P
b0000xx0xxxxx0xx0 "u
b000xx0xxxxx0xx0 "Q
0"S
x"U
x"X
x"[
x"^
x"a
x"d
x"g
x"j
0"m
0"p
0"s
bxxxx #&
b00xx #+
b00xxxxxxxxxxxxxx S
b0000xxxxxxxx0xx0 "u
b000xxxxxxxx0xx0 "Q
bx0xxxxxxxxxxxxxx 8
#40000
0!
0+
b01110000 %
b01110000 /
b00000000000000000000000000000010 )
#45000
1!
1+
b0001 3
b0001 2
b0001 :
b01110000 4
b01110000 @
b01110000 Q
0",
0"$
x"1
x"'
x"&
x}
x";
x"2
x|
xv
x"K
x"F
x"G
x"<
0B
b01110000 =
bxxx0 "{
0"/
0a
0\
x`
x[
xf
xX
x"L
xr
b0x00 N
x#q
xq
xl
bxx0x M
x#j
x#k
b000x G
0#?
0#@
b000x F
0#9
0#:
b0000 E
0#1
0#2
b000 D
0#.
b00 C
b000x H
0#F
0#G
b000xxxxxxxxxxx00 "t
b00xxxxxxxxxxx00 "P
0#5
x#m
0#<
bxx00 "~
bx000 "~
b0000 "~
0"x
0P
0"R
x"T
x"W
x"Z
x"]
x"`
x"c
x"f
x"i
x"l
x"o
0"r
b0000 "|
bx000 "{
0"S
0"U
0"X
x"[
x"^
x"a
x"d
x"g
x"j
x"m
0"p
0"s
bxx00 #"
b000x #*
b000x I
0#M
xZ
x#u
x"N
0#6
0#4
b000xxxxxxx000000 "u
b00xxxxxxx000000 "Q
bxx00 "}
b00xxxxxxxxxxxx00 S
b000xxxxxxxxxx000 "t
b00xxxxxxxxxx000 "P
bx0xxxxxxxxxxxx00 8
x#t
bxxx0 #$
bxx00 #$
0P
0"R
0"T
x"W
x"Z
x"]
x"`
x"c
x"f
x"i
x"l
x"o
0"r
0"S
0"U
0"X
x"[
x"^
x"a
x"d
x"g
x"j
x"m
x"p
0"s
b0000 "{
b00xx #*
b0x0x I
x#N
xs
bx000 "}
b00xxxxxxxxxxx000 S
b000xxxxxxxxx0000 "t
b00xxxxxxxxx0000 "P
bx0xxxxxxxxxxx000 8
b00xx #,
b00xxxxxxxx000000 "u
b0xxxxxxxx000000 "Q
b0x0x N
x#o
b0000 "}
b0xxxxxxxxxxx0000 S
b0xxx #+
bxxxxxxxxxxxx0000 8
x"q
0P
0"R
0"T
x"W
x"Z
x"]
x"`
x"c
x"f
x"i
x"l
x"o
x"r
b00xx #)
b00xxxxxxxxxx0000 "t
b0xxxxxxxxxx0000 "P
#50000
0!
0+
b11111101 %
b11111101 /
b00000000000000000000000000000011 )
#55000
1!
1+
b0010 3
b0010 2
b0010 :
b11111101 4
b11111101 @
b01111101 Q
x"?
x"6
x"5
x"+
xx
xu
x"*
x"!
x"#
xy
xB
b11111101 =
b000x "{
x"A
xm
x"9
xg
xi
x"/
xa
xU
xc
bx0xx E
x#/
x#0
x#2
x\
xW
bx0xx F
x#8
x#:
bx0x D
x#-
bxxxx H
x#F
x#G
x#H
bxx0x G
x#@
x#A
bx0 C
b00xxxxxxxxxx00xx "t
b0xxxxxxxxxx00xx "P
x"V
x#5
x#<
0P
x"R
0"T
x"W
x"Z
x"]
x"`
x"c
x"f
x"i
x"l
x"o
x"r
b0x00 "|
b0xxx "{
0"S
x"U
x"X
x"[
x"^
x"a
x"d
x"g
x"j
x"m
x"p
0"s
bxxxx #"
b0xxx K
x#[
b0xxx J
x#T
x"B
b0xxx I
x#M
xh
x#6
x#4
b00xxxxxxxxxx0x00 "u
b0xxxxxxxxxx0x00 "Q
b0xxx "}
b0xxxxxxxxxxx0xxx S
b00xxxxxxxxxx0xxx "t
b0xxxxxxxxxx0xxx "P
bxxxxxxxxxxxx0xxx 8
b0x00 "~
bxxxx #$
0P
x"R
x"T
x"W
x"Z
x"]
x"`
x"c
x"f
x"i
x"l
x"o
x"r
bxxxx "{
xn
bxxxx K
x#]
bxxxx "}
b0xxxxxxxxxxxxxxx S
b00xxxxxxxxxxxxxx "t
b0xxxxxxxxxxxxxx "P
bxxxxxxxxxxxxxxxx 8
bxx00 "~
x"x
bx0xx L
x#a
x"k
#60000
0!
0+
b11100010 %
b11100010 /
b00000000000000000000000000000100 )
#65000
1!
1+
b0011 3
b0011 2
b0011 :
b11100010 4
b11100010 @
b01100010 Q
0"H
0"?
0"6
x",
0"=
0"5
0"+
x"$
0~
0x
0w
0u
0"(
0t
0"3
0"*
0"!
0"#
0y
0B
b11100010 =
bxxx0 "{
0"B
0"A
0i
0m
0U
0T
0c
b0x00 E
0#/
0#0
x#1
0#2
0W
b0x00 F
0#7
0#8
x#9
0#:
b0x0 D
0#-
x#.
b00xx G
x#?
0#@
0#A
b0x C
b00xx H
0#G
0#H
b00xxxxxxxxxxxx00 "t
b0xxxxxxxxxxxx00 "P
0"V
0#5
0"Y
0#<
0#C
bx000 "~
b0000 "~
0"x
0"S
0"U
0"X
0"[
x"^
x"a
x"d
x"g
x"j
x"m
x"p
0"s
bx000 #"
b00x0 "|
bxx00 "{
0n
bxx0x K
0#[
0h
0"9
0g
b00xxxxxxx00000x0 "u
b0xxxxxxx00000x0 "Q
bxxx0 "}
b0xxxxxxxxxxxxxx0 S
bxxxxxxxxxxxxxxx0 8
bxxx0 #$
bx000 #$
bx0x0 L
0#a
b0x0x K
0#]
b0x0x J
0#T
0"k
#70000
0!
0+
b10010111 %
b10010111 /
b00000000000000000000000000000101 )
