examples/SRAM_16x8_Log_our/DCIM/results/synth/power_rout.vcd
$date
	Wed Oct  1 12:06:37 2025
$end

$version
	Synopsys VCS version O-2018.09-SP2_Full64
$end

$timescale
	1ps
$end

$comment Csum: 1 ec6a2d461e918eb8 $end


$scope module testbench $end
$var reg 1 ! clk $end
$var reg 1 " rst_n $end
$var reg 1 # sram_ce $end
$var reg 1 $ init_enable $end
$var reg 8 % data_in [7:0] $end
$var wire 16 & data_out [15:0] $end
$var wire 1 ' init_done $end
$var wire 1 ( valid_out $end
$var integer 32 ) i $end
$var reg 4 * addr_counter [3:0] $end

$scope begin unnamed$$_vcs_0 $end
$upscope $end


$scope module dut $end
$var wire 1 + clk $end
$var wire 1 , rst_n $end
$var wire 1 - pe_ce $end
$var wire 1 . init_enable $end
$var wire 8 / data_in [7:0] $end
$var reg 16 0 data_out [15:0] $end
$var wire 1 ' init_done $end
$var wire 1 ( valid_out $end
$var reg 2 1 curr_state [1:0] $end
$var reg 4 2 addr_ptr [3:0] $end
$var reg 4 3 init_count [3:0] $end
$var reg 8 4 data_in_reg [7:0] $end
$var reg 8 5 sram_rdata_reg [7:0] $end
$var reg 1 6 valid_reg_out $end
$var wire 8 7 sram_rdata [7:0] $end
$var wire 16 8 product [15:0] $end
$var wire 1 9 sram_we $end
$var wire 4 : sram_addr [3:0] $end

$scope module sram_inst $end
$var wire 1 + clk $end
$var wire 1 ; ce_in $end
$var wire 1 < we_in $end
$var wire 4 : addr_in [3:0] $end
$var wire 8 = wd_in [7:0] $end
$var reg 8 > rd_out [7:0] $end
$var reg 1 ? notifier $end
$upscope $end


$scope module u_multiplier $end
$var wire 8 @ x [7:0] $end
$var wire 8 A y [7:0] $end
$var wire 16 8 p [15:0] $end
$var wire 8 B kx [7:0] $end
$var wire 1 C zero_x $end
$var wire 3 D code_x [2:0] $end
$var wire 8 E ky [7:0] $end
$var wire 1 F zero_y $end
$var wire 3 G code_y [2:0] $end
$var wire 7 H sub_x [6:0] $end
$var wire 7 I sub_y [6:0] $end
$var wire 7 J Q1 [6:0] $end
$var wire 7 K Q2 [6:0] $end
$var wire 16 L compensate [15:0] $end
$var wire 1 M flag $end
$var wire 8 N NOD_Q1 [7:0] $end
$var wire 3 O K [2:0] $end
$var wire 4 P code_sum [3:0] $end
$var wire 16 Q dec_out [15:0] $end
$var wire 16 R pp_x [15:0] $end
$var wire 16 S pp_y [15:0] $end
$var wire 16 T tmp_pp [15:0] $end
$var wire 16 U pp_abs [15:0] $end
$var wire 1 V not_zero $end

$scope module LODx $end
$var wire 8 @ data_i [7:0] $end
$var wire 1 C zero_o $end
$var wire 8 B data_o [7:0] $end
$var wire 8 W z [7:0] $end
$var wire 2 X zdet [1:0] $end
$var wire 2 Y select [1:0] $end
$var wire 8 Z tmp_out [7:0] $end

$scope module lod2_1 $end
$var wire 4 [ data_i [3:0] $end
$var wire 4 \ data_o [3:0] $end
$var wire 1 ] mux0 $end
$var wire 1 ^ mux1 $end
$var wire 1 _ mux2 $end
$upscope $end


$scope module lod2_0 $end
$var wire 4 ` data_i [3:0] $end
$var wire 4 a data_o [3:0] $end
$var wire 1 b mux0 $end
$var wire 1 c mux1 $end
$var wire 1 d mux2 $end
$upscope $end


$scope module Middle $end
$var wire 2 X data_i [1:0] $end
$var wire 2 Y data_o [1:0] $end
$upscope $end


$scope module Inst_MUX214_1 $end
$var wire 4 \ data_i [3:0] $end
$var wire 1 e select_i $end
$var wire 4 f data_o [3:0] $end
$upscope $end


$scope module Inst_MUX214_0 $end
$var wire 4 a data_i [3:0] $end
$var wire 1 g select_i $end
$var wire 4 h data_o [3:0] $end
$upscope $end

$upscope $end


$scope module PEx $end
$var wire 8 B data_i [7:0] $end
$var wire 3 D code_o [2:0] $end
$var wire 4 i tmp0 [3:0] $end
$var wire 4 j tmp1 [3:0] $end
$var wire 4 k tmp2 [3:0] $end

$scope module code0 $end
$var wire 4 i data_i [3:0] $end
$var wire 1 l data_o $end
$var wire 2 m tmp1 [1:0] $end
$upscope $end


$scope module code1 $end
$var wire 4 j data_i [3:0] $end
$var wire 1 n data_o $end
$var wire 2 o tmp1 [1:0] $end
$upscope $end


$scope module code2 $end
$var wire 4 k data_i [3:0] $end
$var wire 1 p data_o $end
$var wire 2 q tmp1 [1:0] $end
$upscope $end

$upscope $end


$scope module LODy $end
$var wire 8 A data_i [7:0] $end
$var wire 1 F zero_o $end
$var wire 8 E data_o [7:0] $end
$var wire 8 r z [7:0] $end
$var wire 2 s zdet [1:0] $end
$var wire 2 t select [1:0] $end
$var wire 8 u tmp_out [7:0] $end

$scope module lod2_1 $end
$var wire 4 v data_i [3:0] $end
$var wire 4 w data_o [3:0] $end
$var wire 1 x mux0 $end
$var wire 1 y mux1 $end
$var wire 1 z mux2 $end
$upscope $end


$scope module lod2_0 $end
$var wire 4 { data_i [3:0] $end
$var wire 4 | data_o [3:0] $end
$var wire 1 } mux0 $end
$var wire 1 ~ mux1 $end
$var wire 1 "! mux2 $end
$upscope $end


$scope module Middle $end
$var wire 2 s data_i [1:0] $end
$var wire 2 t data_o [1:0] $end
$upscope $end


$scope module Inst_MUX214_1 $end
$var wire 4 w data_i [3:0] $end
$var wire 1 "" select_i $end
$var wire 4 "# data_o [3:0] $end
$upscope $end


$scope module Inst_MUX214_0 $end
$var wire 4 | data_i [3:0] $end
$var wire 1 "$ select_i $end
$var wire 4 "% data_o [3:0] $end
$upscope $end

$upscope $end


$scope module PEy $end
$var wire 8 E data_i [7:0] $end
$var wire 3 G code_o [2:0] $end
$var wire 4 "& tmp0 [3:0] $end
$var wire 4 "' tmp1 [3:0] $end
$var wire 4 "( tmp2 [3:0] $end

$scope module code0 $end
$var wire 4 "& data_i [3:0] $end
$var wire 1 ") data_o $end
$var wire 2 "* tmp1 [1:0] $end
$upscope $end


$scope module code1 $end
$var wire 4 "' data_i [3:0] $end
$var wire 1 "+ data_o $end
$var wire 2 ", tmp1 [1:0] $end
$upscope $end


$scope module code2 $end
$var wire 4 "( data_i [3:0] $end
$var wire 1 "- data_o $end
$var wire 2 ". tmp1 [1:0] $end
$upscope $end

$upscope $end


$scope module NOD $end
$var wire 7 J data_i [6:0] $end
$var wire 8 N data_o [7:0] $end
$var wire 6 "/ t_in [5:0] $end

$scope module nod_basic_unit15 $end
$var wire 1 "0 in0 $end
$var wire 1 "1 in1 $end
$var wire 1 "2 in2 $end
$var wire 1 "3 out0 $end
$var wire 1 "4 tmp1 $end
$var wire 1 "5 tmp2 $end
$var wire 1 "6 tmp3 $end
$upscope $end


$scope module nod_cels[2].Nod_bits $end
$var wire 4 "7 data_i [3:0] $end
$var wire 1 "8 t_in $end
$var wire 1 "9 data_o $end
$var wire 1 ": t_out $end
$var wire 1 "; tmp1 $end
$var wire 1 "< t_wire $end

$scope module nod_basic_unit $end
$var wire 1 "= in0 $end
$var wire 1 "> in1 $end
$var wire 1 "? in2 $end
$var wire 1 "; out0 $end
$var wire 1 "@ tmp1 $end
$var wire 1 "A tmp2 $end
$var wire 1 "B tmp3 $end
$upscope $end

$upscope $end


$scope module nod_cels[3].Nod_bits $end
$var wire 4 "C data_i [3:0] $end
$var wire 1 "D t_in $end
$var wire 1 "E data_o $end
$var wire 1 "8 t_out $end
$var wire 1 "F tmp1 $end
$var wire 1 "G t_wire $end

$scope module nod_basic_unit $end
$var wire 1 "H in0 $end
$var wire 1 "I in1 $end
$var wire 1 "J in2 $end
$var wire 1 "F out0 $end
$var wire 1 "K tmp1 $end
$var wire 1 "L tmp2 $end
$var wire 1 "M tmp3 $end
$upscope $end

$upscope $end


$scope module nod_cels[4].Nod_bits $end
$var wire 4 "N data_i [3:0] $end
$var wire 1 "O t_in $end
$var wire 1 "P data_o $end
$var wire 1 "D t_out $end
$var wire 1 "Q tmp1 $end
$var wire 1 "R t_wire $end

$scope module nod_basic_unit $end
$var wire 1 "S in0 $end
$var wire 1 "T in1 $end
$var wire 1 "U in2 $end
$var wire 1 "Q out0 $end
$var wire 1 "V tmp1 $end
$var wire 1 "W tmp2 $end
$var wire 1 "X tmp3 $end
$upscope $end

$upscope $end


$scope module nod_cels[5].Nod_bits $end
$var wire 4 "Y data_i [3:0] $end
$var wire 1 "Z t_in $end
$var wire 1 "[ data_o $end
$var wire 1 "O t_out $end
$var wire 1 "\ tmp1 $end
$var wire 1 "] t_wire $end

$scope module nod_basic_unit $end
$var wire 1 "^ in0 $end
$var wire 1 "_ in1 $end
$var wire 1 "` in2 $end
$var wire 1 "\ out0 $end
$var wire 1 "a tmp1 $end
$var wire 1 "b tmp2 $end
$var wire 1 "c tmp3 $end
$upscope $end

$upscope $end

$upscope $end


$scope module PE $end
$var wire 8 N data_i [7:0] $end
$var wire 3 O code_o [2:0] $end
$var wire 4 "d tmp0 [3:0] $end
$var wire 4 "e tmp1 [3:0] $end
$var wire 4 "f tmp2 [3:0] $end

$scope module code0 $end
$var wire 4 "d data_i [3:0] $end
$var wire 1 "g data_o $end
$var wire 2 "h tmp1 [1:0] $end
$upscope $end


$scope module code1 $end
$var wire 4 "e data_i [3:0] $end
$var wire 1 "i data_o $end
$var wire 2 "j tmp1 [1:0] $end
$upscope $end


$scope module code2 $end
$var wire 4 "f data_i [3:0] $end
$var wire 1 "k data_o $end
$var wire 2 "l tmp1 [1:0] $end
$upscope $end

$upscope $end


$scope module dec $end
$var wire 4 P code_i [3:0] $end
$var wire 16 Q data_o [15:0] $end
$upscope $end

$upscope $end

$upscope $end

$upscope $end

$enddefinitions $end

#0
$dumpvars
0;
0!
0.
1,
xM
x'
0$
xV
x?
1-
1"
1#
x9
x"0
x"1
x"2
x"3
x"4
x"5
z"6
x(
x6
x<
xC
xF
bxx s
bxxxxxxx K
b0000 *
bxxxx 2
bxxxx P
bxxxxxxxxxxxxxxxx L
bxx 1
b00000000 %
bxxxxxxxx 4
bxxxxxxxxxxxxxxxx &
bxxxxxxxxxxxxxxxx Q
b00000000 /
bxxxxxxxxxxxxxxxx 0
bxxxxxxxxxxxxxxxxxxxxxxxxxxxxxxxx )
bxxxx 3
bxxxxxxxxxxxxxxxx U
bxxxxxxxxxxxxxxxx R
bxxxxxxxxxxxxxxxx S
bxxxxxxxxxxxxxxxx 8
bxxxxxxxx >
bxxxx :
bxxxxxxxx 7
bxxxxxxxx 5
bxxxxxxx H
bxxxxxxx I
bxxxxxxxxxxxxxxxx T
bxxxxxxxx =
bxx X
x]
x^
x_
xb
xc
xd
xl
xn
xp
bxx m
bxx o
bxx q
bxxxx i
bxxxx j
bxxxx k
xx
xy
xz
x}
x~
x"!
x")
x"+
x"-
bxx "*
bxx ",
bxx ".
bxxxx "&
bxxxx "'
bxxxx "(
x"@
x"=
x">
x"?
x";
x"A
z"B
x"K
x"H
x"I
x"J
x"F
x"L
z"M
x"V
x"S
x"T
x"U
x"Q
x"W
z"X
x"a
x"^
x"_
x"`
x"\
x"b
z"c
x"g
x"i
x"k
bxx "h
bxx "j
bxx "l
bxxxx "d
bxxxx "e
bxxxx "f
bxxxxxxxx Z
bxxxxxxxx u
bxxxxxxxx N
bxxx D
bxxx G
bxxx O
bxxxx [
bxxxx `
bxxxx v
bxxxx {
bxxxx "7
bxxxx "C
bxxxx "N
bxxxx "Y
0+
x"<
x"G
x"R
x"]
bxxxxxxxx @
bxxxxxxxx W
bxx Y
bxxxxxxxx A
bxxxxxxxx r
bxx t
bxxxxxxx J
b1xxxxx "/
bxxxxxxxx B
bxxxxxxxx E
xe
xg
x""
x"$
x":
bxxxx \
bxxxx a
bxxxx f
bxxxx h
bxxxx w
bxxxx |
bxxxx "#
bxxxx "%
x"8
x"9
x"D
x"E
x"O
x"P
1"Z
x"[
$end
x"3
#5000
1!
1+
b00 1
0'
09
1<
b0000 2
b0000 :
b0000 3
b00000000 4
b00000000 @
1d
1c
1_
1^
b0000 `
bx0 X
0g
b0000 [
b00 X
0e
1C
b00000000 =
b0000000000000000 0
b0000000000000000 &
06
0(
b00000000 Z
b00000000 B
bxx00 j
b0000 j
b0000 k
b00 q
b0000000 H
b0xx D
0p
b00x0 a
b00x000x0 W
b0000 h
1b
b0000 \
b0000 f
1]
b00 Y
0V
b0000000000000000 8
b0000 i
b00 m
b00 o
b000 D
0l
0n
b0000 a
b00000000 W
b000000000xxxxxxx S
#10000
0!
0+
0"
0,
#15000
1!
1+
b00000000 5
b00000000 A
1"!
1~
1z
1y
b0000 {
bx0 s
0"$
b0000 v
b00 s
0""
1F
b00000000 u
b00000000 E
bxx00 "'
b0000 "'
b0000 "(
b00 ".
b0000000 I
b0xx G
0"-
b00x0 |
b00x000x0 r
b0000 "%
b0000000 J
0"K
0"a
0"@
0"V
0"4
0"A
0";
0"b
0"\
0"L
0"F
0"5
0"W
0"Q
b0000 "7
0"=
0">
0"?
b0000 "C
0"H
0"I
0"J
b0000 "N
0"S
0"T
0"U
b0000 "Y
0"^
0"_
0"`
0"0
0"1
0"2
1"]
1"O
0"[
1"R
1"D
0"P
1"G
1"8
0"E
1"<
1":
0"9
1}
b0000 w
b0000 "#
1x
b00 t
b0000 "&
b00 "*
b00 ",
b0000000000000000 S
b0000000 K
0M
b00000000 N
0"3
b00xx "e
b0000 "f
b00 "l
b0000 "e
b000 G
b0000 P
b0000000000000001 Q
0")
0"+
b0xx O
0"k
b0000 |
b00000000 r
b0000 "d
b00 "h
b111111 "/
b00 "j
bxxxxxxxxxxxxxxx1 T
b0000000000000000 R
b000 O
b0000000000000000 L
0"g
0"i
b0000000000000001 T
b0000000000000001 U
#20000
0!
0+
#25000
1!
1+
#30000
1"
1,
1$
1.
b00000000000000000000000000000000 )
0!
0+
b00010011 %
b00010011 /
b00000000000000000000000000000001 )
#35000
1!
1+
b01 1
19
0<
b00010011 4
b00010011 @
b0011 `
b01 X
1g
0C
b0001 [
b11 X
0g
1e
b0010011 H
b00010011 =
bxxxxxxxx 5
bxxxxxxxx A
x~
x"!
xy
xz
bxxxx {
b0x s
x"$
xF
bxxxx v
bxx s
x""
bxxxxxxx I
b00010000 Z
b00010000 B
b0001 k
b01 q
b0000011 H
bxx0xxx0x u
bxx0xxx0x E
b00xx "'
bxxxx "'
bxx0x "(
bxx ".
b100 D
b0100 P
b0000000000010000 Q
1p
bx00 G
bxxxx P
bxxxxxxxxxxxxxxxx Q
x"-
b0001 a
b00010001 W
bxxxxxxx J
x"K
x"F
x"a
x"\
x"@
x";
x"V
x"Q
x"4
x"A
x"b
x"L
x"5
x"W
bxxxx "7
x"=
x">
x"?
bxxxx "C
x"H
x"I
x"J
bxxxx "N
x"S
x"T
x"U
bxxxx "Y
x"^
x"_
x"`
x"0
x"1
x"2
x"]
x"O
x"R
x"D
x"[
x"G
x"8
x"P
x"<
x":
x"E
x"9
0b
b0001 \
b10 Y
b0000 h
b0001 f
bxxxxxxxxxxxxxxxx R
b0000011 K
b0000000000000011 L
xM
bxxxx |
bxxxxxxxx r
x}
bxxxx w
xx
bxx t
bxxxx "%
xV
b000000000000000x 8
bxxxx "#
b00000xxxxxxx0000 S
bx0x0 "&
bx0 "*
bxx ",
bxxxxxxxxxxxxxx11 T
bxxxxxxxx u
bxxxxxxxx E
bxxxx "(
bxxxxxxxx N
x"3
bxx00 "e
bxxxx "f
bxx "l
bxxxx "e
bxxx G
x")
x"+
bx00 O
bxxxxxxxxxxxxxxxx L
x"k
b0010 a
b00010010 W
b1xxxxx "/
bxxxx "d
bxx "h
bxxxxxxxxxxxxxxxx U
bxxxxxxxxxxxxxxxx 8
bxxxxxxx K
bxxxx "&
bxx "*
bxx "j
bxxxxxxxxxxxxxxxx T
bxxx O
x"g
x"i
#40000
0!
0+
b01110000 %
b01110000 /
b00000000000000000000000000000010 )
#45000
1!
1+
b0001 3
b0001 2
b0001 :
b01110000 4
b01110000 @
0^
b0000 `
b10 X
b0111 [
b1100000 H
b01110000 =
b01010000 Z
b01010000 B
b0100 j
b0101 k
b0100000 H
1b
0]
b0100 \
b01000000 W
b0100 f
b01 o
b01000000 Z
b01000000 B
b0100 k
b0110000 H
b110 D
1n
b0000 a
b000xxxxxxx000000 S
#50000
0!
0+
b11111101 %
b11111101 /
b00000000000000000000000000000011 )
#55000
1!
1+
b0010 3
b0010 2
b0010 :
b11111101 4
b11111101 @
0c
0d
0_
b1101 `
b11 X
b1111 [
b0111101 H
b11111101 =
b10000000 Z
b10000000 B
b1000 j
b1000 k
b10 q
b1111101 H
b1001 a
b10001001 W
0b
b1000 \
b1000 f
b1000 i
b10 m
b10 o
b111 D
1l
b1000 a
b10001000 W
b00xxxxxxx0000000 S
#60000
0!
0+
b11100010 %
b11100010 /
b00000000000000000000000000000100 )
#65000
1!
1+
b0011 3
b0011 2
b0011 :
b11100010 4
b11100010 @
1d
1c
b0010 `
b1110 [
b1100010 H
b11100010 =
b0000 a
b10000000 W
b0010 a
b10000010 W
#70000
0!
0+
b10010111 %
b10010111 /
b00000000000000000000000000000101 )
#75000
1!
1+
b0100 3
b0100 2
b0100 :
b10010111 4
b10010111 @
0c
b0111 `
b1001 [
b0010111 H
b10010111 =
b0110 a
b10000110 W
b0100 a
b10000100 W
#80000
0!
0+
b11110001 %
b11110001 /
b00000000000000000000000000000110 )
#85000
1!
1+
b0101 3
b0101 2
b0101 :
b11110001 4
b11110001 @
1c
b0001 `
b1111 [
b1110001 H
b11110001 =
b0000 a
b10000000 W
1b
b0001 a
b10000001 W
#90000
0!
0+
b11000101 %
b11000101 /
b00000000000000000000000000000111 )
#95000
1!
1+
b0110 3
b0110 2
b0110 :
b11000101 4
b11000101 @
0c
b0101 `
b1100 [
b1000101 H
b11000101 =
b0101 a
b10000101 W
0b
b0100 a
b10000100 W
#100000
0!
0+
b11101100 %
b11101100 /
b00000000000000000000000000001000 )
#105000
1!
1+
b0111 3
b0111 2
b0111 :
b11101100 4
b11101100 @
0d
b1100 `
b1110 [
b1101100 H
b11101100 =
b1000 a
b10001000 W
#110000
0!
0+
b01001000 %
b01001000 /
b00000000000000000000000000001001 )
#115000
1!
1+
b1000 3
b1000 2
b1000 :
b01001000 4
b01001000 @
1_
b1000 `
b0100 [
b1001000 H
b01001000 =
b01000000 Z
b01000000 B
b0100 j
b0100 k
b01 q
b0001000 H
b0100 \
b01001000 W
b0100 f
b0000 i
b00 m
b01 o
b110 D
0l
b000xxxxxxx000000 S
#120000
0!
0+
b00001100 %
b00001100 /
b00000000000000000000000000001010 )
#125000
1!
1+
b1001 3
b1001 2
b1001 :
b00001100 4
b00001100 @
1^
b1100 `
b0000 [
b01 X
1g
0e
b1001100 H
b00001100 =
b00001000 Z
b00001000 B
b0110 j
b0010 j
b0000 k
b00 q
b0000100 H
b010 D
0p
b0000 \
b00001000 W
b0000 f
1]
b01 Y
b1000 h
b0010 i
b10 m
b10 o
b0000000xxxxxxx00 S
b011 D
1l
b000000xxxxxxx000 S
#130000
0!
0+
b00101100 %
b00101100 /
b00000000000000000000000000001011 )
#135000
1!
1+
b1010 3
b1010 2
b1010 :
b00101100 4
b00101100 @
b0010 [
b11 X
0g
1e
b0100100 H
b00101100 =
b00000000 Z
b00000000 B
b0000 j
b0101100 H
0]
b10 Y
b0000 h
b0000 i
b00 m
b00 o
b00100000 Z
b00100000 B
b0010 k
b10 q
b0001100 H
b100 D
0l
0n
1p
b0010 \
b00101000 W
b0010 f
b0100 i
b01 m
b00000xxxxxxx0000 S
b101 D
1l
b0000xxxxxxx00000 S
#140000
0!
0+
b01101011 %
b01101011 /
b00000000000000000000000000001100 )
#145000
1!
1+
b1011 3
b1011 2
b1011 :
b01101011 4
b01101011 @
0^
b1011 `
b0110 [
b1001011 H
b01101011 =
b01100000 Z
b01100000 B
b0100 j
b0110 k
b11 q
b0001011 H
b0110 \
b01101000 W
b0110 f
b01 o
b01000000 Z
b01000000 B
b0100 k
b01 q
b0101011 H
b111 D
1n
b0100 \
b01001000 W
b0100 f
b0000 i
b00 m
b00xxxxxxx0000000 S
b110 D
0l
b000xxxxxxx000000 S
#150000
0!
0+
b00011011 %
b00011011 /
b00000000000000000000000000001101 )
#155000
1!
1+
b1100 3
b1100 2
b1100 :
b00011011 4
b00011011 @
1^
b0001 [
b1011011 H
b00011011 =
b00000000 Z
b00000000 B
b0000 j
b0000 k
b00 q
b0011011 H
b010 D
0p
b0000 \
b00001000 W
b0000 f
1]
b00 o
b0000000xxxxxxx00 S
b00010000 Z
b00010000 B
b0001 k
b01 q
b0001011 H
b100 D
0n
1p
b0001 \
b00011000 W
b0001 f
b00000xxxxxxx0000 S
#160000
0!
0+
b01000101 %
b01000101 /
b00000000000000000000000000001110 )
#165000
1!
1+
b1101 3
b1101 2
b1101 :
b01000101 4
b01000101 @
1d
0^
b0101 `
b0100 [
b1010101 H
b01000101 =
b01000000 Z
b01000000 B
b0100 j
b0100 k
b0000101 H
b0100 a
b01000100 W
b0100 \
b0100 f
0]
b01 o
b110 D
1n
b000xxxxxxx000000 S
#170000
0!
0+
b11110100 %
b11110100 /
b00000000000000000000000000001111 )
#175000
1!
1+
b1110 3
b1110 2
b1110 :
b11110100 4
b11110100 @
0_
b0100 `
b1111 [
b0110100 H
b11110100 =
b10000000 Z
b10000000 B
b1000 j
b1000 k
b10 q
b1110100 H
b1000 \
b10000100 W
b1000 f
b1000 i
b10 m
b10 o
b111 D
1l
b00xxxxxxx0000000 S
#180000
0!
0+
b01101100 %
b01101100 /
b00000000000000000000000000010000 )
0$
0.
b00000000000000000000000000000000 )
#185000
1!
1+
b1111 3
b1111 2
b1111 :
b01101100 4
b01101100 @
0d
1_
b1100 `
b0110 [
b1101100 H
b01101100 =
b01000000 Z
b01000000 B
b0100 j
b0100 k
b01 q
b0101100 H
b1000 a
b01001000 W
b0100 \
b0100 f
b0000 i
b00 m
b01 o
b110 D
0l
b000xxxxxxx000000 S
#190000
0!
0+
b01100111 %
b01100111 /
b00000000000000000000000000000001 )
#195000
1!
1+
b10 1
1'
09
1<
b0000 2
b0000 :
b01100111 4
b01100111 @
1d
b0111 `
b0100111 H
b01100111 =
b0100 a
b01000100 W
#200000
0!
0+
b10001100 %
b10001100 /
b00000000000000000000000000000010 )
b00010011 >
b00010011 7
#205000
1!
1+
b0001 2
b0001 :
b10001100 4
b10001100 @
0d
1^
0_
0^
b1100 `
b1000 [
b1001100 H
b10001100 =
b00010011 5
b00010011 A
1"!
1~
1z
1y
b0011 {
bx1 s
0F
b0001 v
b11 s
0"$
1""
bxxxxxxxxxxxxxxxx 0
bxxxxxxxxxxxxxxxx &
16
1(
b10000000 Z
b10000000 B
b1000 j
b1000 k
b10 q
b0001100 H
b00xx0000 u
b00xx0000 E
bxx00 "'
b0000 "'
b00xx "(
b0xx0011 I
b1000 a
b10001000 W
b1000 \
b1000 f
0]
0}
b00x0 |
b00xx00x0 r
b0000 "%
b0xxxxxx J
0"4
b0xxx "Y
0"0
1"]
1"O
b000x w
b000x "#
1x
1V
b10 t
b1000 i
b10 m
b10 o
b0x00 "&
b0x "*
b00 ",
b0000xx0011000000 S
b0xxxxxx K
b00010000 u
b00010000 E
b0001 "(
b01 ".
b0000011 I
b0xxxxxxx N
x"3
b0xxx "e
b0xxx "f
b111 D
1l
b10x G
0"+
1"-
b0010 |
b00010010 r
b0xxx "d
b11xxxx "/
b0001 w
b0001 "#
b0000 "&
b00 "*
b0000000110000000 S
b000xxxx K
b000xxxx J
0"a
0"V
0"b
0"\
0"5
b0xxx "C
b00xx "N
0"S
b000x "Y
0"^
0"_
0"1
0"2
1"R
1"D
0"[
1"G
1"8
1M
b100 G
b1011 P
b0000100000000000 Q
0")
b000xxxxx N
0"3
b00xx "e
b000x "f
b0x "l
b1111xx "/
b00xx "d
b0000011 K
b0001100 J
0"K
1"@
1";
0"A
0"L
0"F
1"W
1"Q
b1100 "7
1"=
0">
0"?
b0110 "C
1"H
1"I
0"J
b0011 "N
1"T
1"U
b0001 "Y
1"`
1"P
0"<
0":
0"E
0"9
bxxxx1xxxxxxxxxxx T
b0000000011000000 R
b00010000 N
0"3
b0001 "f
b01 "l
b0000 "e
b1xx O
1"k
b111100 "/
b0000 "d
b00 "h
b00 "j
b100 O
b0000000000110000 L
0"g
0"i
b0000100000110000 T
b0000101001110000 U
b0000101001110000 8
#210000
0!
0+
b01001010 %
b01001010 /
b00000000000000000000000000000011 )
b01110000 >
b01110000 7
#215000
1!
1+
b0001 *
b0010 2
b0010 :
b01001010 4
b01001010 @
1_
b1010 `
b0100 [
b1001010 H
b01001010 =
b01110000 5
b01110000 A
0y
b0000 {
b10 s
b0111 v
b1100000 I
b0000101001110000 0
b0000101001110000 &
b01000000 Z
b01000000 B
b0100 j
b0100 k
b01 q
b0001010 H
b01010000 u
b01010000 E
b0100 "'
b0101 "(
b0100000 I
b0100 \
b01001000 W
b0100 f
b0000000010100000 R
b0001010 J
1"K
1"F
0"@
0";
0"W
0"Q
b1010 "7
0"=
1">
b0101 "C
0"I
1"J
b0010 "N
0"U
0"P
1"E
1}
0x
b0100 w
b01000000 r
b0100 "#
b0001000000000000 S
b0100000 K
b0000001000000000 L
0M
b0000 i
b00 m
b01 o
b01 ",
b00001000 N
0"3
b0000 "f
b00 "l
b0010 "e
b01000000 u
b01000000 E
b0100 "(
b0110000 I
b110 D
b1010 P
b0000010000000000 Q
0l
b110 G
b1100 P
b0001000000000000 Q
1"+
b000 O
b0000000000100000 L
0"k
b0001100011010000 U
b0001100011010000 8
b0000 |
b0010 "d
b10 "h
b0001000000100000 T
b0001010 K
b0000000000010100 L
b0110000 J
0"K
0"F
1"V
1"Q
1"5
b0000 "7
0">
b1000 "C
0"H
0"J
b1100 "N
1"S
0"T
b0110 "Y
1"^
1"_
0"`
1"1
1"2
0"R
0"D
0"G
0"8
0"E
b10 "j
b0000110000000000 S
b0000001010000000 R
b011 O
b0000000001010000 L
1"g
1"i
b01000000 N
1"3
b0110 "e
b0100 "f
b01 "l
b0100 "e
b111 O
b0000010100000000 L
1"k
b0001111010100000 U
b0001111010100000 8
b0001010100000000 T
b110000 "/
b0000 "d
b00 "h
b01 "j
b110 O
b0000001010000000 L
0"g
b0010001110000000 U
b0010001110000000 8
b0001001010000000 T
b0010000100000000 U
b0010000100000000 8
#220000
0!
0+
b10100110 %
b10100110 /
b00000000000000000000000000000100 )
b11111101 >
b11111101 7
#225000
1!
1+
b0010 *
b0011 2
b0011 :
b10100110 4
b10100110 @
1d
1^
0_
0^
b0110 `
b1010 [
b1100110 H
b10100110 =
b11111101 5
b11111101 A
0~
0"!
0z
b1101 {
b11 s
b1111 v
b0111101 I
b0010000100000000 0
b0010000100000000 &
b10000000 Z
b10000000 B
b1000 j
b1000 k
b10 q
b0100110 H
b10000000 u
b10000000 E
b1000 "'
b1000 "(
b10 ".
b1111101 I
b0100 a
b10000100 W
b1000 \
b1000 f
b1111101 J
1"@
1";
0"V
0"Q
0"5
b1101 "7
1"=
1"?
b1110 "C
1"H
1"I
b1111 "N
1"T
1"U
b1111 "Y
1"`
1"0
0"]
0"O
b0000100110000000 R
b0100110 K
b0000100110000000 L
0M
b1001 |
b10001001 r
0}
b1000 w
b1000 "#
b0001111101000000 S
b1000 i
b10 m
b10 o
b1000 "&
b10 "*
b10 ",
b10000000 N
0"3
b1000 "e
b1000 "f
b10 "l
b111 D
b1101 P
b0010000000000000 Q
1l
b111 G
b1110 P
b0100000000000000 Q
1")
b1000 "d
b10 "h
b100000 "/
b0011101101000000 U
b0011101101000000 8
b0100100110000000 T
b1000 |
b10001000 r
b10 "j
b0011111010000000 S
b0001001100000000 R
b111 O
b0001001100000000 L
1"g
b1001101100000000 U
b1001101100000000 8
b0101001100000000 T
b1010010010000000 U
b1010010010000000 8
#230000
0!
0+
b10100011 %
b10100011 /
b00000000000000000000000000000101 )
b11100010 >
b11100010 7
#235000
1!
1+
b0011 *
b0100 2
b0100 :
b10100011 4
b10100011 @
1c
b0011 `
b0100011 H
b10100011 =
b11100010 5
b11100010 A
1"!
1~
b0010 {
b1110 v
b1100010 I
b1010010010000000 0
b1010010010000000 &
b0000 a
b10000000 W
b1100010 J
1"a
1"\
0"@
0";
b0010 "7
0"=
1">
0"?
b0001 "C
0"H
0"I
1"J
b1000 "N
0"S
0"T
0"U
b1100 "Y
0"_
0"`
0"2
b0001000110000000 R
b0100011 K
b0001000110000000 L
b0010 |
b10000010 r
b0011000100000000 S
b0010 a
b10000010 W
b1001010110000000 U
b1001010110000000 8
b0101000110000000 T
b1001010000000000 U
b1001010000000000 8
#240000
0!
0+
b10011101 %
b10011101 /
b00000000000000000000000000000110 )
b10010111 >
b10010111 7
